<svg xmlns="http://www.w3.org/2000/svg" xmlns:xlink="http://www.w3.org/1999/xlink">

	<symbol id="business-index" width="44px" height="45px" viewBox="0 0 44 45" >

	    <title>ic_index_business</title>
	    <desc>Created with Sketch.</desc>
	    <defs></defs>
	    <g id="Etisalat_Icons" stroke="none" stroke-width="1" fill="none" fill-rule="evenodd">
	        <g id="Store-Locator_icon-SET" transform="translate(-210.000000, -425.000000)">
	            <g id="ic_index_business" transform="translate(210.000000, 425.550000)">
	                <circle id="Oval-112" fill="#616B1E" cx="22" cy="22" r="22"></circle>
	                <path d="M16.3,32.8 L11,32.8 C10.3,32.8 9.7,32.3 9.7,31.6 L9.7,21.8 L16.3,21.8 L28.9,21.8 L35.5,21.8 L35.5,31.6 C35.5,32.3 34.9,32.8 34.2,32.8 L28.9,32.8 L16.3,32.8 Z M11,16.2 L20,16.2 L25.2,16.2 L34.2,16.2 C34.9,16.2 35.4,16.8 35.4,17.4 L35.4,20.2 L9.6,20.2 L9.6,17.4 C9.7,16.8 10.3,16.2 11,16.2 L11,16.2 Z M19.9,14.6 L19.9,12.6 C19.9,12.6 19.9,12.5 20,12.5 L25.2,12.5 C25.2,12.5 25.3,12.5 25.3,12.6 L25.3,14.6 C25.3,14.6 25.3,14.7 25.2,14.7 L19.9,14.6 C20,14.7 19.9,14.7 19.9,14.6 L19.9,14.6 Z M34.2,14.7 L26.7,14.7 L26.7,14.6 L26.7,12.6 C26.7,11.7 26,11 25.1,11 L19.9,11 C19,11 18.3,11.7 18.3,12.6 L18.3,14.6 L18.3,14.7 L10.8,14.7 C9.3,14.7 8,15.9 8,17.5 L8,31.6 C8,33.1 9.2,34.4 10.8,34.4 L34.1,34.4 C35.6,34.4 36.9,33.2 36.9,31.6 L36.9,17.5 C37,16 35.8,14.7 34.2,14.7 L34.2,14.7 Z" id="Fill-12" fill="#FFFFFF"></path>
	            </g>
	        </g>
	    </g>
	</symbol>
	<symbol id="menu-icon" width="31px" height="21px" viewBox="0 0 31 21">

	    <title>ic_menu</title>
	    <desc>Created with Sketch.</desc>
	    <defs></defs>
	    <g  stroke="none" stroke-width="1" fill="none" fill-rule="evenodd" stroke-linecap="square">
	        <g id="00---Icon-+-Text---Desktop-A---Icons-+-Text" transform="translate(-345.000000, -188.000000)" stroke="#353738">
	            <g id="Group-5" transform="translate(240.000000, 131.000000)">
	                <g id="01">
	                    <g id="ic_menu" transform="translate(106.000000, 56.000000)">
	                        <path d="M0,21.5 L29,21.5" id="Line"></path>
	                        <path d="M0,1.5 L29,1.5" id="Line"></path>
	                        <path d="M0,11.5 L29,11.5" id="Line"></path>
	                    </g>
	                </g>
	            </g>
	        </g>
	    </g>
	</symbol >
	  <symbol id="etisalat-logo-ar" viewBox="0 0 137.54 44">
	    <path d="M336.4 432.5a3.42 3.42 0 0 1-1.8-.4c-2.3-1.2-4.1-6.9-4.1-12.8 0-3.9 2.5-6 6.1-6a14.29 14.29 0 0 1 6.7 1.9c7.1 3.7 8.9 9.4 4.1 12.8-3.8 2.7-8.2 4.5-11 4.5m-.9-25.1a8.25 8.25 0 0 0-2.8.4c-3.2 1-4.4 3.9-4.2 8.1a46.5 46.5 0 0 0 2.5 11.5c1 3.2 1.8 5.2 3.1 5.8a2.9 2.9 0 0 0 1.4.3 19.78 19.78 0 0 0 5.1-1.2 49.19 49.19 0 0 0 10.8-4.7c3.5-2.2 5.2-4.9 4.2-8.1s-4.6-6.6-9.7-9.2a23.81 23.81 0 0 0-10.4-2.9m-12.8-3.6c-1.8 2.4-1.9 6.3-.7 11.1 1.7 6.8 4.6 13.7 6 18.3 1.6 4.7 1.6 7.1 2.2 7.4h.2c.8 0 2.8-1.3 7.1-2.5 4.5-1.5 11.8-3.1 18.4-5.7 4.6-1.8 7.7-4.1 8.6-6.9-1.5 2-4.1 3.6-7.7 5-6.5 2.5-13.8 4.1-18.4 5.7-4.3 1.3-6.3 2.5-7.1 2.5h-.2c-.6-.3-.6-2.7-2.2-7.4-1.4-4.6-4.3-11.5-6-18.2-.8-3.8-1-7-.2-9.3" transform="translate(-228.3 -399.3)" fill="#beca47"/><path d="M330.5 399.3a12.5 12.5 0 0 0-3.6.5 5.72 5.72 0 0 0-4.1 4 5.67 5.67 0 0 1 3.2-2.1 9.8 9.8 0 0 1 3.6-.5c4.7 0 11.4 2 18.2 5.5 8.8 4.6 15.4 10.3 16.7 14.9a5.83 5.83 0 0 1 .1 3.9 6.09 6.09 0 0 0 .9-5.7c-1.4-4.6-7.9-10.3-16.7-14.9-6.9-3.6-13.6-5.6-18.3-5.6" transform="translate(-228.3 -399.3)" fill="#4c743c"/><path d="M335.4 433.5a3.19 3.19 0 0 1-1.4-.3c-1.3-.7-2-2.7-3.1-5.8a57.78 57.78 0 0 1-2.5-11.5c-.2-4.1 1-7.1 4.2-8.1a8.25 8.25 0 0 1 2.8-.4 23.79 23.79 0 0 1 10.3 2.9c5 2.6 8.7 6.1 9.7 9.2s-.7 5.9-4.2 8.1a54.48 54.48 0 0 1-10.8 4.7 16.88 16.88 0 0 1-5 1.2m-5.9-32.3a12.5 12.5 0 0 0-3.6.5 6 6 0 0 0-3.2 2.1c-.8 2.3-.6 5.5.3 9.2 1.7 6.8 4.6 13.7 6 18.2 1.6 4.7 1.6 7.1 2.2 7.4h.2c.8 0 2.8-1.3 7.1-2.5 4.5-1.5 11.8-3.1 18.4-5.7 3.5-1.4 6.2-3 7.7-5a5.83 5.83 0 0 0-.1-3.9c-1.4-4.6-7.9-10.4-16.7-14.9-6.9-3.4-13.5-5.4-18.3-5.4" transform="translate(-228.3 -399.3)" fill="#78a14a"/><path d="M303.8 425.3v-.4a1.47 1.47 0 0 1-.4.2l-1 .6-1 .5c-.1.1-.3.1-.3.9v8.9h-7.6v-7.8a3.42 3.42 0 0 0-.9-2.6 3.25 3.25 0 0 0-2.7-.7 19.91 19.91 0 0 0-12 4.1l-1 1.1-.3.4-.2-.5a5.88 5.88 0 0 0-1-1.6l-.3-.4a1.24 1.24 0 0 0-.3-.2c0 .4.1 1.2.1 2.4v5.6h-4.3v-19.9l-.4.2-1 .6-1 .5c-.1.1-.3.1-.3 1v17.5a2.89 2.89 0 0 0 .5 2.1 2.39 2.39 0 0 0 2.2 1h4.1v.3a19 19 0 0 1-.8 4 .31.31 0 0 1-.1.2 4.82 4.82 0 0 0 1-.8 10.72 10.72 0 0 0 2-3.4l.1-.2h23.8a3 3 0 0 0 1.9-.5c.8-.6 1.1-1.1 1.1-2.7v-7.2c.1-.4.1-3.2.1-3.2zm-13 10.4h-13.3v-.2c0-.1.8-7.6 11.6-7.9a1.54 1.54 0 0 1 1.3.5 2.47 2.47 0 0 1 .5 1.5v6.1h-.1zM247.9 435.7v-6.3c0-.9.2-1 .3-1l1-.5s1.2-.7 1.3-.7v9.1a2.69 2.69 0 0 1-.8 1.8 2.58 2.58 0 0 1-2 .7h-14.7a4.64 4.64 0 0 1-3.8-2.4 6.4 6.4 0 0 1-.9-3.4 10.6 10.6 0 0 1 .4-2.9 1.76 1.76 0 0 1 .6-1.2v.3a16 16 0 0 0 1.1 4.2c1.2 2.7 4.6 2.5 4.6 2.5h12.8v-.2h.1zm2.8-8.9zM260.9 418.7v-.1c0-.9.2-1 .3-1l1-.5s1.2-.7 1.3-.7v10.5c0 9.1-4.2 11.7-4.5 11.9h-4a15.21 15.21 0 0 0 3.5-3.1l.1-.1v-.2l-4.8-10.6a8.34 8.34 0 0 1-.7-3.1 4.12 4.12 0 0 1 1.4-3.3v.2a12.64 12.64 0 0 0 1 4.2c0 .1 2.9 5.6 4.1 8.4l.3 1.1.2.6.2-.6.1-.3a9.14 9.14 0 0 0 .5-2.6v-10.700000000000001zm2.8-2.7z" transform="translate(-228.3 -399.3)" fill="#65666a"/><path d="M80 33.7v-14.3c0-.9.2-1 .3-1l1-.4 1.4-.8v22.4h-2.7v-5.9z" fill="#65666a"/><path d="M237.6 427.2a1.69 1.69 0 0 0 1.3-.3 1.56 1.56 0 0 0 .3-1.2v-1.3h-1.5a1.05 1.05 0 0 0-1.2 1.2v1.7s.8-.1 1.1-.1zM241.1 427.2a1.69 1.69 0 0 0 1.3-.3 1.56 1.56 0 0 0 .3-1.2v-1.3h-1.5a1 1 0 0 0-1.1 1.2v1.7s.7-.1 1-.1zM298.8 422.6a1.69 1.69 0 0 0 1.3-.3 1.56 1.56 0 0 0 .3-1.2v-1.3h-1.5a1.05 1.05 0 0 0-1.2 1.2v1.7s.8-.1 1.1-.1zM302.2 422.6a1.69 1.69 0 0 0 1.3-.3 1.56 1.56 0 0 0 .3-1.2v-1.3h-1.5a1 1 0 0 0-1.1 1.2v1.7s.8-.1 1-.1z" transform="translate(-228.3 -399.3)" fill="#65666a"/>
    </symbol>
	  <symbol id="etisalat-logo" viewBox="0 0 181 46">
        <path d="M1.582 5.498c-1.947 2.535-1.995 6.705-.702 11.872 1.816 7.28 4.955 14.636 6.417 19.548 1.684 5.023 1.694 7.602 2.348 7.938.064.033.139.047.232.047.858 0 3.022-1.343 7.599-2.727 4.849-1.652 12.665-3.355 19.654-6.085 4.92-1.926 8.282-4.359 9.253-7.383-1.563 2.114-4.422 3.889-8.198 5.366-6.991 2.73-14.804 4.434-19.656 6.084-4.575 1.387-6.736 2.731-7.596 2.731-.094 0-.171-.018-.236-.051-.652-.336-.663-2.909-2.349-7.938-1.463-4.908-4.597-12.266-6.416-19.547-.991-3.968-1.194-7.351-.35-9.855m13.735 3.813c-1.124 0-2.14.141-3.014.433-3.407 1.047-4.754 4.226-4.491 8.648.265 4.417 1.634 9.001 2.65 12.333 1.119 3.384 1.883 5.518 3.273 6.232.417.216.906.312 1.48.312 1.331 0 3.114-.518 5.497-1.25 3.304-1.1 7.835-2.64 11.591-4.983 3.758-2.342 5.573-5.284 4.456-8.667-1.023-3.33-4.97-7.111-10.377-9.9-3.98-2.056-7.936-3.158-11.065-3.158m.96 26.869c-.78 0-1.445-.125-1.953-.389-2.463-1.273-4.415-7.421-4.381-13.741.017-4.125 2.63-6.397 6.547-6.397 2.091 0 4.557.649 7.195 2.012 7.576 3.911 9.526 10.06 4.382 13.741-4.079 2.927-8.788 4.774-11.79 4.774" fill="#C1CD23"/><path d="M9.908.677c-1.48 0-2.79.182-3.882.553-2.308.7-3.741 2.178-4.444 4.268.798-1.038 1.915-1.802 3.389-2.247 1.096-.375 2.409-.556 3.894-.556 5.082 0 12.176 2.125 19.498 5.906 9.465 4.887 16.452 11.065 17.912 15.975.5 1.486.513 2.861.108 4.132 1.328-1.797 1.72-3.839.945-6.149-1.458-4.908-8.448-11.084-17.91-15.972-7.329-3.785-14.428-5.91-19.51-5.91" fill="#FEFEFE"/><path d="M8.865 2.695c-1.485 0-2.797.18-3.894.556-1.474.445-2.591 1.209-3.389 2.247-.844 2.504-.641 5.886.351 9.855 1.818 7.281 4.952 14.638 6.415 19.546 1.686 5.03 1.697 7.602 2.349 7.939.065.033.143.051.236.051.86 0 3.021-1.345 7.596-2.731 4.852-1.65 12.665-3.354 19.656-6.084 3.776-1.477 6.635-3.253 8.198-5.367.405-1.27.392-2.645-.108-4.132-1.46-4.91-8.447-11.087-17.911-15.974-7.323-3.781-14.416-5.906-19.499-5.906m6.35 34.573c-.574 0-1.062-.096-1.48-.311-1.39-.715-2.154-2.849-3.273-6.232-1.016-3.332-2.384-7.917-2.65-12.334-.263-4.422 1.085-7.601 4.491-8.648.874-.292 1.89-.433 3.014-.433 3.129 0 7.085 1.103 11.065 3.158 5.407 2.79 9.355 6.57 10.377 9.9 1.118 3.384-.698 6.325-4.456 8.667-3.756 2.343-8.287 3.884-11.591 4.984-2.382.732-4.166 1.249-5.497 1.249" fill="#79A22E"/><path d="M68.707 33.029c.994-.113 1.73-.296 2.088-.655.359-.361.321-1.095.084-1.656-.756-1.768-2.795-3.058-5.397-3.058-3.984 0-6.796 2.565-6.796 6.492 0 0 9.527-1.066 10.021-1.123m2.273 2.794l-12.307 1.26c.485 3.885 3.386 5.338 6.475 5.346h7.888c1.123 0 1.869.757 1.869 1.837l-.003 1.577h-9.834c-5.484 0-10.091-3.568-10.091-10.877 0-6.229 4.357-10.466 10.546-10.466 4.446 0 8.057 2.715 9.038 6.81.593 2.49-.75 4.194-3.581 4.513" fill="#807F82"/><path d="M113.931 24.51c1.169 0 2.008.543 2.008 1.711 0 1.173-.839 1.717-2.008 1.717h-8.574c-1.799.136-2.026 1.941-1.879 3.056.049.363.219.668.471.881.56.475 1.531.644 2.539.817l6.521 1.148c3.43.625 4.725 2.365 4.725 5.461 0 4.809-2.965 6.588-7.61 6.588h-10.832l.003-1.713c0-1.17.796-1.715 2.009-1.715h8.57c3.345 0 4.207-1.027 4.203-2.867-.003-1.67-.463-2.281-2.698-2.658l-6.606-1.088c-3.344-.543-4.797-2.301-4.977-4.545-.265-3.289 1.098-6.793 5.606-6.793h8.529zM133.845 38.215c0 3.638-2.049 4.937-5.523 4.937-3.134 0-4.93-1.13-4.93-3.64 0-1.866 1.585-3.072 3.48-3.406 1.895-.336 4.78-.465 6.973-.967v3.076zm3.676-6.187c0-3.721-1.005-7.528-6.52-7.528h-7.737c-1.214 0-2.009.545-2.009 1.713 0 1.174.795 1.718 2.009 1.718h7.192c2.551 0 3.389.586 3.389 2.382v.545c-.149 1.097-1.387 1.357-2.008 1.503-5.168 1.213-12.126-.119-12.126 7.319 0 3.971 3.383 6.314 8.028 6.314.053 0 4.663.227 6.36-2.099l.012.2c.115 1.173.671 1.789 1.872 1.789h1.527l.011-13.856zM161.785 38.215c0 3.638-2.051 4.937-5.523 4.937-3.135 0-4.932-1.13-4.932-3.64 0-1.866 1.587-3.072 3.48-3.406 1.895-.336 4.78-.465 6.975-.967v3.076zm3.678-6.187c0-3.721-1.007-7.528-6.524-7.528h-7.738c-1.211 0-2.006.545-2.006 1.713 0 1.174.795 1.718 2.006 1.718h7.195c2.551 0 3.389.586 3.389 2.382v.545c-.15 1.097-1.386 1.357-2.008 1.503-5.17 1.213-12.126-.119-12.126 7.319 0 3.971 3.384 6.314 8.027 6.314.054 0 4.664.227 6.359-2.099l.014.2c.112 1.173.67 1.789 1.869 1.789h1.531l.012-13.856zM144.808 18.711h-2.06c-1.786 0-1.62 1.62-1.62 1.62v19.857l-.009 5.691 3.689.01v-27.178zM86.9 42.685c-2.801 0-3.842-.125-3.842-2.17v-12.584h3.257c1.169 0 2.005-.543 2.005-1.712 0-1.167-.836-1.712-2.005-1.712h-3.257v-5.674l-1.57-.003c-.313.005-.528.017-.766.044-1.491.162-1.342 1.607-1.342 1.607v4.026h-1.001c-1.167 0-2.008.545-2.008 1.712 0 1.169.841 1.712 2.008 1.712h1.001v13.375c0 4.51 3.135 4.568 7.52 4.568l2.172-.005-.002-1.47c0-1.044-.834-1.714-2.17-1.714M177.963 42.685c-2.8 0-3.84-.125-3.84-2.17v-12.584h3.255c1.171 0 2.005-.543 2.005-1.712 0-1.167-.834-1.712-2.005-1.712h-3.255v-5.674l-1.571-.003c-.314.005-.528.017-.767.044-1.489.162-1.34 1.607-1.34 1.607v4.026h-1.003c-1.165 0-2.006.545-2.006 1.712 0 1.169.841 1.712 2.006 1.712h1.003v13.375c0 4.51 3.133 4.568 7.518 4.568l2.173-.005-.001-1.47c0-1.044-.836-1.714-2.172-1.714" fill="#807F82"/><path d="M95.927 45.883l-.007-21.36-2.058-.011c-1.386.019-1.623.889-1.623 1.638v19.733h3.688zM93.677 20.894c.895 0 1.362.025 1.858-.436.39-.359.392-1.003.392-1.738l-.007-1.879h-2.067c-1.389.021-1.614.879-1.614 1.628l-.007 2.427 1.445-.002" fill="#807F82"/>
    </symbol>
    <symbol id="top-nav-cart" viewBox="0 0 25 23">
        <g stroke="#353738" fill="none"><path d="M7.407 20.044c0 .91-.729 1.647-1.627 1.647-.899 0-1.627-.737-1.627-1.647s.729-1.647 1.627-1.647c.899 0 1.627.737 1.627 1.647zM18.39 20.044c0 .91-.729 1.647-1.627 1.647-.899 0-1.627-.737-1.627-1.647s.729-1.647 1.627-1.647c.899 0 1.627.737 1.627 1.647zM24.898 1.103h-3.59l-4.139 17.294h-11.39M17.576 16.75h-13.194l-3.077-9.882h18.623"/></g>
    </symbol>
    <symbol id="top-nav-store" viewBox="0 0 16 20">
        <g stroke="#353738" fill="none"><path d="M15 7.828c0 6.207-7 11.172-7 11.172s-7-4.966-7-11.172c0-3.771 3.302-6.828 7-6.828s7 3.057 7 6.828zM12.136 7.828c0 2.228-1.852 4.034-4.136 4.034-2.285 0-4.136-1.806-4.136-4.034 0-2.228 1.852-4.034 4.136-4.034 2.285 0 4.136 1.806 4.136 4.034z"/></g>
    </symbol>
    <symbol id="current-location" viewBox="0 0 16 20">
        <g stroke="#ffffff" fill="#ffffff" ><path d="M15 7.828c0 6.207-7 11.172-7 11.172s-7-4.966-7-11.172c0-3.771 3.302-6.828 7-6.828s7 3.057 7 6.828zM12.136 7.828c0 2.228-1.852 4.034-4.136 4.034-2.285 0-4.136-1.806-4.136-4.034 0-2.228 1.852-4.034 4.136-4.034 2.285 0 4.136 1.806 4.136 4.034z"/></g>
    </symbol>
    <symbol id="main-menu-search" viewBox="0 0 21 20">
        <g fill="none"><path fill="#fff" d="M-1300-38h1440v96h-1440z"/><g stroke="#2B2E2C"><path d="M12.184 12.184l7.816 7.816"/><path d="M14.103 7.552c0 3.619-2.933 6.552-6.552 6.552-3.619 0-6.552-2.933-6.552-6.552 0-3.618 2.933-6.552 6.552-6.552 3.619 0 6.552 2.934 6.552 6.552z"/></g></g>
    </symbol>
    <symbol id="social-facebook" viewBox="0 0 16 30">
        <path d="M11.553.271c-4.309 0-7.094 2.872-7.094 7.316v3.373h-3.856c-.333 0-.603.272-.603.606v4.888c0 .335.27.606.603.606h3.856v12.333c0 .335.27.606.603.606h5.032c.333 0 .603-.272.603-.606v-12.333h4.509c.334 0 .603-.271.603-.606l.002-4.888c0-.161-.064-.315-.177-.429-.113-.114-.267-.178-.427-.178h-4.511v-2.86c0-1.374.326-2.072 2.107-2.072l2.584-.001c.333 0 .603-.272.603-.606v-4.538c0-.334-.27-.606-.602-.606l-3.835-.006z" />
    </symbol>
    <symbol id="social-twitter" viewBox="0 0 27 22">
        <path d="M27 2.608c-.994.442-2.06.741-3.18.875 1.144-.687 2.02-1.777 2.435-3.071-1.073.636-2.257 1.098-3.519 1.349-1.011-1.081-2.448-1.755-4.042-1.755-3.059 0-5.539 2.487-5.539 5.553 0 .435.049.859.143 1.266-4.603-.232-8.684-2.443-11.415-5.804-.478.819-.749 1.773-.749 2.792 0 1.927.979 3.628 2.463 4.622-.908-.03-1.761-.281-2.509-.697v.069c0 2.69 1.91 4.935 4.442 5.447-.464.125-.953.195-1.459.195-.358 0-.703-.035-1.043-.103.705 2.208 2.75 3.814 5.173 3.858-1.895 1.489-4.284 2.374-6.879 2.374-.447 0-.887-.027-1.321-.076 2.452 1.579 5.362 2.499 8.49 2.499 10.189 0 15.758-8.463 15.758-15.803l-.019-.719c1.088-.778 2.03-1.756 2.77-2.87" />
    </symbol>
    <symbol id="social-snapchat" viewBox="0 0 34 32">
        <path d="M16.658.006c-.755 0-2.265.105-3.887.81-.927.403-1.762.948-2.479 1.619-.856.8-1.553 1.787-2.072 2.933-.76 1.678-.579 4.504-.435 6.775l.047.748c-.111.05-.292.104-.559.104-.429 0-.938-.135-1.514-.401-.17-.078-.363-.117-.577-.117-.343 0-.705.099-1.018.281-.395.228-.65.551-.719.908-.046.237-.043.704.484 1.178.29.261.716.502 1.266.716l.497.166c.63.197 1.582.495 1.831 1.071.126.292.072.676-.161 1.141-.076.172-.617 1.38-1.729 2.654-.631.725-1.327 1.33-2.066 1.801-.902.574-1.878.95-2.901 1.115-.402.065-.688.417-.666.818.007.115.034.23.082.342.164.376.54.694 1.152.974.748.342 1.867.63 3.325.855.074.138.15.485.203.722.055.252.113.512.196.787.089.299.319.655.912.655.225 0 .483-.05.782-.107.438-.085 1.037-.2 1.784-.2.414 0 .844.036 1.276.107.833.137 1.551.636 2.382 1.215 1.216.847 2.593 1.805 4.697 1.805l.172-.006.247.006c2.104 0 3.481-.959 4.696-1.805.833-.58 1.551-1.079 2.383-1.215.432-.071.861-.107 1.276-.107.714 0 1.279.09 1.784.187.329.064.585.095.782.095.472 0 .791-.234.912-.644.081-.27.138-.523.195-.78.05-.222.129-.579.202-.719 1.459-.226 2.577-.513 3.325-.855.611-.279.987-.596 1.15-.969.049-.112.078-.227.084-.345.023-.4-.264-.753-.666-.818-4.545-.738-6.593-5.337-6.678-5.532-.25-.503-.304-.886-.178-1.179.248-.575 1.2-.873 1.83-1.07l.497-.166c.62-.241 1.064-.503 1.356-.8.349-.354.417-.694.413-.916-.011-.537-.428-1.015-1.092-1.249-.224-.091-.48-.139-.74-.139-.177 0-.44.024-.688.138-.532.245-1.008.379-1.417.398-.217-.011-.37-.057-.469-.102l.04-.65.006-.096c.146-2.273.327-5.101-.434-6.78-.521-1.15-1.221-2.139-2.08-2.941-.721-.672-1.558-1.217-2.488-1.619-1.62-.7-3.13-.804-3.886-.804l-.669.006z" />
    </symbol>
    <symbol id="social-youtube" viewBox="0 0 37 37">
        <path d="M8.088 26.515l.027-5.834 1.239-.011 1.238-.014-.014-.899-.016-.9-3.576-.013-3.573-.013v1.823l1.209.014 1.209.011.014 5.786c.006 3.182.025 5.813.039 5.846.019.047.271.058 1.1.048l1.076-.013.027-5.834zm20.625-.41c-.05-.117.019-1.464.087-1.66.157-.46.489-.684 1.014-.684.436 0 .713.149.9.482.118.211.129.302.148 1.084l.018.852h-1.068c-.918 0-1.071-.01-1.098-.074zm1.994 6.285c1.046-.26 1.77-.891 2.043-1.781.045-.152.098-.585.117-.961l.031-.684h-2.016l-.025.613c-.028.696-.11.935-.397 1.158-.306.237-.867.254-1.232.037-.435-.26-.542-.697-.52-2.12l.016-1.008 2.086-.011 2.086-.014-.027-1.5c-.034-1.674-.072-1.927-.391-2.522-.607-1.126-2.289-1.694-3.686-1.245-1.054.34-1.677.951-1.926 1.898-.088.334-.098.633-.098 3.082 0 3.003.012 3.126.359 3.741.62 1.094 2.172 1.666 3.584 1.318zm-8.259-1.71c.128-.077.212-.183.278-.349.084-.218.092-.496.08-3.072-.012-2.684-.018-2.842-.117-3.018-.252-.449-.888-.493-1.471-.099l-.192.128v6.124l.19.128c.431.29.904.351 1.23.159zm1.262 1.729c.317-.081.7-.414.873-.753.331-.65.333-.666.333-4.324 0-3.002-.01-3.372-.095-3.697-.273-1.039-.869-1.493-1.871-1.427-.561.039-1.002.236-1.532.687-.23.195-.436.357-.46.357-.021 0-.04-.995-.04-2.209v-2.209h-1.958v13.539h1.958v-.456c0-.303.021-.456.061-.456.032 0 .252.16.489.357.761.632 1.42.806 2.241.591zm-10.418-.045c.391-.128.851-.409 1.238-.757.177-.16.355-.29.394-.29.052 0 .07.13.07.528v.528h1.958v-10.033999999999999h-1.958v7.741l-.422.369c-.334.294-.474.383-.681.433-.35.086-.572.026-.716-.192-.109-.162-.111-.238-.127-4.258l-.014-4.093h-1.955v4.345c0 4.734.005 4.837.306 5.293.329.498 1.098.655 1.908.386zm.831 4.186c-1.271-.019-2.776-.05-3.344-.069-3.815-.121-6.434-.25-6.957-.344-.746-.133-1.579-.578-2.064-1.103-.774-.84-1.188-1.86-1.389-3.43-.465-3.649-.454-7.905.028-11.426.212-1.543.739-2.658 1.623-3.435.505-.445.99-.692 1.636-.838 1.401-.317 12.361-.568 19.029-.438 3.852.075 8.013.233 9.118.344 1.431.144 2.435.798 3.13 2.038.526.936.693 1.666.906 3.913.167 1.779.208 2.888.177 4.942-.035 2.458-.212 4.623-.478 5.838-.28 1.285-.94 2.38-1.796 2.973-.659.458-1.362.663-2.469.718l-.924.053c-.637.043-4.052.165-5.926.211-2.783.069-7.654.093-10.303.051zm-3.435-22.299c-.047-.067-.039-4.017.008-4.576.061-.717-.076-1.282-.659-2.724-.189-.468-.531-1.375-.759-2.015-1.648-4.629-1.561-4.358-1.403-4.359 1.086-.008 2.426-.002 2.442.011.01.009.362 1.139.783 2.512l.782 2.539c.008.023.255-.776.549-1.777.615-2.099.961-3.257.974-3.267.027-.023.333-.027 1.333-.023l1.107.006-.025.157c-.019.127-.775 2.368-1.567 4.644l-.489 1.442c-.183.541-.403 1.183-.491 1.428l-.159.446v2.78c0 2.608-.006 2.783-.095 2.803-.199.048-2.297.025-2.332-.025zm14.306.167c-.546-.064-.866-.25-1.085-.633-.274-.48-.274-.478-.274-5.262v-4.464h2.205l.023 4.116c.025 4.47.018 4.366.321 4.433.278.061.586-.071.97-.416l.368-.33.014-3.902.013-3.901 1.102-.014 1.102-.011v10.219000000000001l-.15.027c-.18.033-1.85.031-1.985-.003-.082-.019-.095-.086-.095-.486v-.464l-.313.27c-.72.618-1.497.907-2.215.822zm-5.551-1.951c.378-.254.381-.276.4-3.148.017-2.233.008-2.612-.069-2.916-.104-.412-.285-.606-.64-.692-.458-.107-.878.123-1.025.566-.111.341-.11 5.405.003 5.746.085.256.359.536.561.575.263.049.585-.006.772-.13h-.001zm-.864 1.949c-.987-.105-1.893-.617-2.329-1.317-.444-.712-.485-1.085-.46-4.222.021-2.429.028-2.581.137-2.93.26-.829.764-1.394 1.545-1.735 1.072-.468 2.228-.407 3.239.171.645.367 1.036.9 1.245 1.692.092.35.101.618.101 3.072 0 2.984-.016 3.156-.362 3.802-.333.623-1.086 1.172-1.872 1.365-.347.083-.949.134-1.244.102z" />
    </symbol>
    <symbol id="social-linkedin" viewBox="0 0 29 28">
        <path d="M.369 27.932h6.203v-18.801h-6.203v18.801zm3.143-27.864c-2.123 0-3.511 1.403-3.511 3.248 0 1.805 1.348 3.25 3.429 3.25h.041c2.164 0 3.51-1.445 3.51-3.25-.041-1.845-1.346-3.248-3.469-3.248zm25.429 17.084v10.781h-6.203v-10.059c0-2.527-.897-4.251-3.142-4.251-1.714 0-2.734 1.162-3.183 2.286-.164.402-.206.961-.206 1.524v10.5h-6.205s.084-17.036 0-18.801h6.204v2.665l-.041.061h.041v-.061c.824-1.279 2.297-3.107 5.592-3.107 4.082 0 7.143 2.687 7.143 8.462z" />
    </symbol>
    <symbol id="social-instagram" viewBox="0 0 29 29">
        <g ><path d="M22.308 7.808c-.615 0-1.115-.501-1.115-1.115v-2.231c0-.615.501-1.115 1.115-1.115h2.231c.615 0 1.115.501 1.115 1.115v2.231c0 .615-.501 1.115-1.115 1.115h-2.231zM14.5 10.248c-.81 0-1.557.238-2.201.628.201-.062.409-.104.629-.104 1.191 0 2.156.965 2.156 2.157 0 1.189-.965 2.156-2.156 2.156-1.191 0-2.156-.966-2.156-2.156 0-.222.043-.431.105-.63-.393.644-.629 1.391-.629 2.201 0 2.35 1.902 4.253 4.253 4.253 2.348 0 4.253-1.902 4.253-4.253s-1.906-4.252-4.254-4.252M14.5 5.577c-4.92 0-8.923 4.003-8.923 8.923s4.003 8.923 8.923 8.923 8.923-4.003 8.923-8.923-4.003-8.923-8.923-8.923m0 2.231c3.695 0 6.692 2.996 6.692 6.692s-2.998 6.692-6.692 6.692c-3.695 0-6.692-2.996-6.692-6.692s2.997-6.692 6.692-6.692"/><path d="M26.769 10.038h-7.291c1.063 1.186 1.714 2.745 1.714 4.462 0 3.696-2.998 6.692-6.692 6.692-3.695 0-6.692-2.996-6.692-6.692 0-1.717.651-3.277 1.714-4.462h-7.291v-4.601c0-1.768 1.439-3.207 3.207-3.207h18.125c1.769 0 3.207 1.439 3.207 3.207v4.601zm-3.207-10.038h-18.125c-3.004 0-5.438 2.434-5.438 5.438v18.125c0 3.004 2.434 5.438 5.438 5.438h18.125c3.004 0 5.438-2.434 5.438-5.438v-18.125c0-3.004-2.434-5.438-5.438-5.438z"/></g>
    </symbol>
    <symbol id="social-more" viewBox="0 0 14 14">
        <path d="M14 8c-.3.5-.4.6-1 1h-4v4c-.5.6-.5.7-1 1 .3-.1-2 0-2 0-.4 0-.5-.2-1-1v-4h-4c-.6-.4-.7-.5-1-1 .1.3 0-2 0-2 0-.4.2-.5 1-1h4v-4c.5-.8.6-1 1-1h2c.5.3.5.4 1 1v4h4c.8.5 1 .6 1 1v2z"/>
    </symbol>
    <symbol id="social-less" viewBox="0 0 14 4">
        <path d="M14 3c-.3.5-.4.6-1 1h-12c-.6-.4-.7-.5-1-1 .1.3 0-2 0-2 0-.4.2-.5 1-1h12c.8.5 1 .6 1 1v2z"/>
    </symbol>
    <symbol id="social-whatsapp" viewBox="0 0 24 24">
        <path d="M12 0c-6.6 0-12 5.4-12 12 0 2.6.8 5.1 2.3 7l-1.5 4.5 4.6-1.5c1.9 1.3 4.2 2 6.6 2 6.6 0 12-5.4 12-12s-5.4-12-12-12zm7 16.9c-.3.8-1.4 1.5-2.4 1.7-.6.1-1.4.2-4.2-.9-3.5-1.5-5.8-5-6-5.3-.1-.2-1.4-1.8-1.4-3.6 0-1.7.9-2.6 1.2-2.9.3-.3.8-.4 1.3-.4h.4c.4 0 .5 0 .8.6.3.7 1 2.4 1.1 2.6s.2.4 0 .6c-.1.3-.2.4-.4.6l-.5.6c-.2.2-.3.4-.1.7.2.3.9 1.5 1.9 2.4 1.3 1.2 2.4 1.6 2.8 1.7.3.1.6.1.8-.1.3-.3.6-.8.9-1.2.2-.3.5-.4.9-.3.3.1 2 1 2.4 1.1.4.2.6.3.7.4.1.2.1.9-.2 1.7z"/>
    </symbol>
    <symbol id="social-share" viewBox="0 0 25 24">
        <path d="M21 16c-1.5 0-2.8.8-3.5 2.1l-9.8-4.6c.2-.5.3-1 .3-1.5 0-.3 0-.5-.1-.7l9.7-5.1c.7 1 2 1.8 3.4 1.8 2.2 0 4-1.8 4-4s-1.8-4-4-4-4 1.8-4 4c0 .4.1.8.2 1.2l-9.6 5.1c-.6-1.4-2-2.3-3.6-2.3-2.2 0-4 1.8-4 4s1.8 4 4 4c1.3 0 2.5-.7 3.2-1.7l9.9 4.7c-.1.3-.1.7-.1 1 0 2.2 1.8 4 4 4s4-1.8 4-4-1.8-4-4-4z"/>
    </symbol>
    <symbol id="read-more-triangle" viewBox="0 0 11 6">
        <path d="M5.5 0l5.5 6h-11z"/>
    </symbol>
    <symbol id="hero-image-arrow" viewBox="0 0 46 89">
        <path d="M1.004 1.004l43.996 43.83-43.83 43.996" fill="none"/>
    </symbol>
	  <symbol id="mobilephone-icon" viewBox="0 0 24 40">
	    <g fill="none"><path d="M-9.123 1.158h45.263v45.215h-45.263z"/><g stroke-linecap="round" stroke="#353738"><path d="M23.008 35.589c0 1.787-1.477 3.248-3.283 3.248h-15.758c-1.806 0-3.283-1.462-3.283-3.248v-31.183c0-1.787 1.477-3.248 3.283-3.248h15.758c1.806 0 3.283 1.462 3.283 3.248v31.183zM.684 6.892h22.324M.684 32.284h22.324M7.25 4.434h9.192"/><path d="M13.159 35.589c0 .717-.588 1.299-1.313 1.299s-1.313-.582-1.313-1.299c0-.718.588-1.299 1.313-1.299.726 0 1.313.581 1.313 1.299z"/></g></g>
    </symbol>
    <symbol id="carousel-arrow" viewBox="0 0 45 18">
        <g stroke-linecap="square" stroke-width="2" fill="none"><path d="M3 9h41M2 9l7-7"/><path d="M9 16l-6.5-6.5"/></g>
    </symbol>
    <symbol id="carousel-arrow-strokable" viewBox="0 0 45 18">
        <g stroke-linecap="square" stroke-width="2" fill="none"><path d="M3 9h41M2 9l7-7"/><path d="M9 16l-6.5-6.5"/></g>
    </symbol>
    <symbol id="menu-arrow" viewBox="0 0 9 13">
        <path  d="M0,3H1V4H2V5H3V6H4V7H3V8H2V9H1v1H0v2H1v1H2V12H3V11H4V10H5V9H6V8H7V7H8V6H7V5H6V4H5V3H4V2H3V1H2V0H1V1H0V3Z"/>
    </symbol>
    <symbol id="dropdown-menu-arrow" viewBox="0 0 21 11">
        <g fill="none"><path fill="#fff" d="M-120-21h375v48h-375z"/><path d="M1 0l9.5 10.015 9.5-10.015" /></g>
    </symbol>
  	<symbol id="play-button" viewBox="0 0 60 60">
  	  <g opacity=".5" fill="none"><path fill="#fff" d="M0 0h60v60h-60z"/><path d="M20 42.333v-25.333l20 12.667-20 12.667z" fill="#DBDAD1"/></g>
  	</symbol>
    <symbol id="flip-front" viewBox="0 0 20 18">
        <g fill="#000000" opacity="0.5" ><path d="M17.524 12.82c-.191-.185-.191-.485 0-.669.963-.928 1.493-2.157 1.493-3.458 0-2.703-2.28-4.901-5.082-4.901h-6.683l2.114 2.038c.093.089.144.208.144.335 0 .126-.051.245-.144.335-.194.178-.497.177-.691.009l-2.957-2.852-.108-.155c-.05-.116-.05-.247 0-.362l.108-.155 2.951-2.846c.191-.184.503-.184.694 0 .191.185.191.485 0 .669l-2.11 2.035h6.683c3.345 0 6.066 2.624 6.066 5.85 0 1.555-.632 3.021-1.779 4.127-.098.09-.221.138-.349.138-.134 0-.255-.048-.349-.138zM11.639 17.388c-.133 0-.257-.051-.348-.144-.189-.182-.189-.482.003-.667l2.11-2.035h-7.339c-3.345 0-6.066-2.624-6.066-5.85 0-1.386.516-2.73 1.452-3.787.086-.096.205-.155.335-.165.131-.009.258.03.358.113.206.17.23.47.054.668-.785.885-1.216 2.011-1.216 3.17 0 2.703 2.28 4.901 5.082 4.901h7.339l-2.111-2.038c-.191-.185-.191-.485 0-.669.186-.18.509-.179.694 0l2.951 2.849c.191.185.191.485 0 .669l-2.951 2.846c-.098.09-.221.138-.349.138"/></g>
    </symbol>
    <symbol id="flip-back" viewBox="0 0 20 18">
        <g fill="#ffffff" opacity="0.5" ><path d="M17.524 12.82c-.191-.185-.191-.485 0-.669.963-.928 1.493-2.157 1.493-3.458 0-2.703-2.28-4.901-5.082-4.901h-6.683l2.114 2.038c.093.089.144.208.144.335 0 .126-.051.245-.144.335-.194.178-.497.177-.691.009l-2.957-2.852-.108-.155c-.05-.116-.05-.247 0-.362l.108-.155 2.951-2.846c.191-.184.503-.184.694 0 .191.185.191.485 0 .669l-2.11 2.035h6.683c3.345 0 6.066 2.624 6.066 5.85 0 1.555-.632 3.021-1.779 4.127-.098.09-.221.138-.349.138-.134 0-.255-.048-.349-.138zM11.639 17.388c-.133 0-.257-.051-.348-.144-.189-.182-.189-.482.003-.667l2.11-2.035h-7.339c-3.345 0-6.066-2.624-6.066-5.85 0-1.386.516-2.73 1.452-3.787.086-.096.205-.155.335-.165.131-.009.258.03.358.113.206.17.23.47.054.668-.785.885-1.216 2.011-1.216 3.17 0 2.703 2.28 4.901 5.082 4.901h7.339l-2.111-2.038c-.191-.185-.191-.485 0-.669.186-.18.509-.179.694 0l2.951 2.849c.191.185.191.485 0 .669l-2.951 2.846c-.098.09-.221.138-.349.138"/></g>
    </symbol>
    <symbol id="flip-icon" viewBox="0 0 20 18">
        <g><path d="M17.524 12.82c-.191-.185-.191-.485 0-.669.963-.928 1.493-2.157 1.493-3.458 0-2.703-2.28-4.901-5.082-4.901h-6.683l2.114 2.038c.093.089.144.208.144.335 0 .126-.051.245-.144.335-.194.178-.497.177-.691.009l-2.957-2.852-.108-.155c-.05-.116-.05-.247 0-.362l.108-.155 2.951-2.846c.191-.184.503-.184.694 0 .191.185.191.485 0 .669l-2.11 2.035h6.683c3.345 0 6.066 2.624 6.066 5.85 0 1.555-.632 3.021-1.779 4.127-.098.09-.221.138-.349.138-.134 0-.255-.048-.349-.138zM11.639 17.388c-.133 0-.257-.051-.348-.144-.189-.182-.189-.482.003-.667l2.11-2.035h-7.339c-3.345 0-6.066-2.624-6.066-5.85 0-1.386.516-2.73 1.452-3.787.086-.096.205-.155.335-.165.131-.009.258.03.358.113.206.17.23.47.054.668-.785.885-1.216 2.011-1.216 3.17 0 2.703 2.28 4.901 5.082 4.901h7.339l-2.111-2.038c-.191-.185-.191-.485 0-.669.186-.18.509-.179.694 0l2.951 2.849c.191.185.191.485 0 .669l-2.951 2.846c-.098.09-.221.138-.349.138"/></g>
    </symbol>
    <symbol id="store-all" viewBox="0 0 20 14">
        <g opacity=".8" fill="none"><path d="M1.429.5h17.335M1.429 7h17.335M1.429 13.5h17.335"/></g>
    </symbol>
    <symbol id="store-bag" viewBox="0 0 24 28">
        <path d="M2.062 25.814l2.634-19.492h2.634v1.686c0 .421.316.843.843.843.527 0 .843-.316.843-.843v-1.686h5.795v1.686c0 .421.316.843.843.843.527 0 .843-.316.843-.843v-1.686h2.634l2.634 19.492h-19.703zm6.849-21.494c0-1.58 1.264-2.845 2.845-2.845h.211c1.58 0 2.845 1.264 2.845 2.845v.421h-5.795v-.421h-.105zm11.59 1.159c-.105-.421-.421-.632-.738-.632h-3.372v-.421c0-2.423-2.002-4.425-4.425-4.425h-.211c-2.423 0-4.425 2.002-4.425 4.425v.421h-3.372c-.421 0-.738.316-.738.632l-2.845 21.073c0 .211 0 .421.211.632.105.211.316.316.632.316h21.389c.211 0 .421-.105.632-.316.105-.211.211-.421.211-.632l-2.95-21.073z" fill="#ffffff"/>
    </symbol>
    <symbol id="store-basket" viewBox="0 0 29 23">
        <path d="M24.092 20.474c0 .563-.49 1.056-1.051 1.056-.56 0-1.05-.493-1.05-1.056 0-.563.49-1.056 1.05-1.056.561 0 1.051.493 1.051 1.056zm-11.696 0c0 .563-.49 1.056-1.05 1.056s-1.051-.493-1.051-1.056c0-.563.491-1.056 1.051-1.056.56 0 1.05.493 1.05 1.056zm8.475-15.76h6.793l-1.891 9.217h-17.158l-1.961-9.217h14.218zm-12.677 10.273h17.999c.07 0 .14 0 .21-.071h.07l.07-.071.07-.07.069-.071v-.142l2.102-10.272v-.283l-.07-.071-.07-.071-.07-.071-.069-.07-.07-.071h-21.991l-.701-3.236v-.071l-.07-.071-.069-.071-.07-.071-.07-.07-.07-.071h-4.832c-.28 0-.56.211-.56.563s.21.563.56.563h4.202l2.731 12.946c-1.191.281-2.101 1.337-2.101 2.673 0 1.477 1.191 2.744 2.731 2.744h1.331c-.21.281-.28.633-.28 1.056 0 1.196.91 2.111 2.101 2.111 1.191 0 2.101-.915 2.101-2.111 0-.352-.14-.774-.28-1.056h8.054c-.211.281-.28.633-.28 1.056 0 1.196.91 2.111 2.101 2.111 1.191 0 2.101-.915 2.101-2.111 0-.352-.14-.774-.28-1.056h1.33c.28 0 .56-.211.56-.563s-.21-.563-.56-.563h-17.929c-.91 0-1.68-.774-1.68-1.689s.77-1.688 1.68-1.688z" fill="none"/>
    </symbol>
    <symbol id="store-business" viewBox="0 0 30 24">
        <path d="M8.953 22.363h-5.3c-.7 0-1.3-.5-1.3-1.2v-9.8h25.799999999999997v9.8c0 .7-.6 1.2-1.3 1.2h-17.9zm-5.3-16.6h23.2c.7 0 1.2.6 1.2 1.2v2.8h-25.8v-2.8c.1-.6.7-1.2 1.4-1.2zm8.9-1.6v-2s0-.1.1-.1h5.2s.1 0 .1.1v2s0 .1-.1.1l-5.3-.1c.1.1 0 .1 0 0zm14.3.1h-7.5v-2.1c0-.9-.7-1.6-1.6-1.6h-5.2c-.9 0-1.6.7-1.6 1.6v2.1h-7.5c-1.5 0-2.8 1.2-2.8 2.8v14.1c0 1.5 1.2 2.8 2.8 2.8h23.3c1.5 0 2.8-1.2 2.8-2.8v-14.1c.1-1.5-1.1-2.8-2.7-2.8z" fill="none"/>
    </symbol>
    <symbol id="store-clock" viewBox="0 0 20 20">
        <path d="M14.891 14.865c-.158.172-.423.179-.589.026l-5-4.583c-.086-.079-.135-.19-.135-.307v-4.583c0-.23.187-.417.417-.417.23 0 .417.187.417.417v4.4l4.865 4.459c.17.156.181.42.026.589m-4.891-14.865c-5.513 0-10 4.486-10 10s4.487 10 10 10c5.514 0 10-4.486 10-10s-4.486-10-10-10" fill="#719e19"/>
    </symbol>
    <symbol id="store-compass" viewBox="0 0 21 20">
        <path d="M15.973 5.131l-2.911 6.793-.16-.16-4-4-.16-.159 6.793-2.911c.125-.054.27-.026.367.07.096.096.124.242.071.367zm-10.175 10.175l-.131.027c-.087 0-.172-.034-.236-.098-.096-.096-.124-.242-.071-.367l2.911-6.793.159.159 4 4 .16.16-6.793 2.911zm4.869-15.306c-5.514 0-10 4.486-10 10s4.486 10 10 10 10-4.486 10-10-4.486-10-10-10z" fill="#719e19"/>
    </symbol>
    <symbol id="store-coverage" viewBox="0 0 24 24">
        <g transform="translate(1 1)" opacity=".8" fill="none"><circle cx="11" cy="11" r="1"/><circle cx="11" cy="11" r="11"/><circle cx="11" cy="11" r="6"/></g>
    </symbol>
    <symbol id="store-info" viewBox="0 0 20 20">
        <path d="M9.999 0c-5.523 0-9.999 4.477-9.999 9.999 0 5.523 4.477 10.001 9.999 10.001 5.523 0 10.001-4.478 10.001-10.001s-4.478-9.999-10.001-9.999zm0 3.687c.861 0 1.56.698 1.56 1.559s-.699 1.559-1.56 1.559c-.861 0-1.559-.698-1.559-1.559s.698-1.559 1.559-1.559zm0 4.157c.381 0 .76.152 1.027.411.267.259.42.624.415.988v5.672c.005.368-.15.735-.422.995s-.657.409-1.042.404c-.377-.005-.749-.159-1.012-.418s-.414-.62-.409-.981v-5.672c-.005-.364.148-.728.416-.988.267-.259.645-.411 1.026-.411z" fill="#719e19"/>
    </symbol>
    <symbol id="store-payment" viewBox="0 0 25 15">
        <g opacity=".8" fill="none"><path d="M18.768 7.5h1.929M4.304 7.5h1.929"/><path d="M.5.5h24v14h-24z"/><circle cx="12.5" cy="7.5" r="2.5"/></g>
    </symbol>
    <symbol id="store-phone" viewBox="0 0 20 20">
        <path d="M19.332 14.615l-2.181-2.181c-.43-.431-1.002-.668-1.611-.668s-1.181.236-1.612.668l-.584.584c-2.285-1.89-4.479-4.084-6.365-6.365l.584-.584c.888-.888.888-2.333 0-3.221l-2.181-2.181c-.43-.431-1.003-.668-1.611-.668-.609 0-1.182.236-1.612.668l-1.197 1.196c-1.105 1.104-1.28 2.854-.417 4.16 3.498 5.286 8.141 9.929 13.429 13.426.543.36 1.174.55 1.825.55.883 0 1.712-.344 2.335-.967l1.197-1.196c.43-.429.668-1.002.668-1.611 0-.608-.237-1.181-.668-1.611" fill="#719e19" />
    </symbol>
    <symbol id="store-pin-on-map" viewBox="0 0 64 76">
        <defs><filter x="-50%" y="-50%" width="200%" height="200%" filterUnits="objectBoundingBox" id="a"><feOffset dy="2" in="SourceAlpha" result="shadowOffsetOuter1"/><feGaussianBlur stdDeviation="2" in="shadowOffsetOuter1" result="shadowBlurOuter1"/><feColorMatrix values="0 0 0 0 0 0 0 0 0 0 0 0 0 0 0 0 0 0 0.35 0" in="shadowBlurOuter1" result="shadowMatrixOuter1"/><feMerge><feMergeNode in="shadowMatrixOuter1"/><feMergeNode in="SourceGraphic"/></feMerge></filter></defs><g fill="none"><path d="M32.017 69.759l20.11-20.543c4.922-5.287 7.657-12.032 7.657-19.142 0-15.495-12.579-28.074-27.892-28.074-15.314 0-27.892 12.579-27.892 27.892 0 7.11 2.734 14.037 7.656 19.324l20.361 20.543" class="externalFill" filter="url(#a)"/><path d="M50.123 47.393l-18.23 18.23-18.23-18.23c-4.558-4.74-6.928-10.938-6.928-17.319 0-13.855 11.303-25.157 25.158-25.157s25.157 11.302 25.157 25.157c0 6.381-2.369 12.579-6.927 17.319" fill="#fff"/></g>
    </symbol>
    <symbol id="store-pin-small" viewBox="0 0 14 20">
        <path d="M6.667 9.583c-1.608 0-2.917-1.308-2.917-2.917 0-1.608 1.308-2.917 2.917-2.917 1.608 0 2.917 1.308 2.917 2.917 0 1.608-1.308 2.917-2.917 2.917m0-9.583c-3.676 0-6.667 2.99-6.667 6.667 0 3.537 6.061 12.756 6.319 13.146.077.117.207.188.347.188.14 0 .27-.071.348-.188.258-.39 6.319-9.609 6.319-13.146 0-3.677-2.991-6.667-6.667-6.667" fill="#ffffff"/>
    </symbol>
    <symbol id="store-pin-small-details" viewBox="0 0 14 20">
        <path d="M6.667 9.583c-1.608 0-2.917-1.308-2.917-2.917 0-1.608 1.308-2.917 2.917-2.917 1.608 0 2.917 1.308 2.917 2.917 0 1.608-1.308 2.917-2.917 2.917m0-9.583c-3.676 0-6.667 2.99-6.667 6.667 0 3.537 6.061 12.756 6.319 13.146.077.117.207.188.347.188.14 0 .27-.071.348-.188.258-.39 6.319-9.609 6.319-13.146 0-3.677-2.991-6.667-6.667-6.667" fill="#719e19"/>
    </symbol>
    <symbol id="store-wifi" viewBox="0 0 30 25">
        <g fill="none"><path d="M16.009 22.538c-.5.5-1.4.5-2 0-.3-.3-.4-.6-.4-1s.1-.7.4-1c.3-.3.6-.4 1-.4s.7.1 1 .4c.3.3.4.6.4 1s-.2.7-.4 1m-3-3.1c-.5.5-.8 1.3-.8 2s.3 1.5.8 2 1.3.8 2 .8 1.5-.3 2-.8.8-1.3.8-2-.3-1.5-.8-2c-1.1-1.1-3-1.1-4 0M15.009 13.137c-2.2 0-4.3.9-5.9 2.5-.3.3-.3.8 0 1.1.3.3.8.3 1.1 0 1.3-1.3 3-2 4.9-2 1.9 0 3.6.7 4.9 2 .1.1.3.2.5.2s.4-.1.5-.2c.3-.3.3-.8 0-1.1-1.7-1.6-3.8-2.5-6-2.5M15.009 6.537c-4 0-7.7 1.6-10.6 4.4-.3.3-.3.8 0 1.1.3.3.8.3 1.1 0 2.5-2.5 5.9-3.9 9.5-3.9 3.6 0 7 1.4 9.5 3.9.1.1.3.2.5.2s.4-.1.5-.2c.3-.3.3-.8 0-1.1-2.8-2.8-6.5-4.4-10.5-4.4M29.709 6.737c-8.1-8.1-21.3-8.1-29.5 0-.3.3-.3.8 0 1.1.3.3.8.3 1.1 0 7.5-7.5 19.8-7.5 27.3 0 .1.1.3.2.5.2s.4-.1.5-.2c.4-.3.4-.8.1-1.1"/></g>
    </symbol>
    <symbol id="less-button" viewBox="0 0 23 23">
        <g transform="translate(0 0)" fill="none"><path d="M0 11.387c0 6.289 5.099 11.388 11.387 11.388 6.289 0 11.387-5.098 11.387-11.388 0-6.288-5.098-11.387-11.387-11.387-6.288 0-11.387 5.098-11.387 11.387z" stroke="#fff"/><rect fill="#fff" x="6" y="10" width="11" height="3" rx="100"/></g>
    </symbol>
    <symbol id="plus-button" viewBox="0 0 23 23">
        <g fill="none"><path d="M11.387 0c-6.288 0-11.387 5.098-11.387 11.387 0 6.289 5.099 11.388 11.387 11.388 6.289 0 11.387-5.098 11.387-11.388 0-6.288-5.098-11.387-11.387-11.387z" stroke="#719E19" stroke-width="2"/><path d="M11.282 16.918c-.302 0-.568-.115-.798-.345-.23-.23-.341-.517-.333-.861l-.025-3.241-3.279.013c-.285-.016-.549-.13-.791-.339-.243-.21-.365-.482-.364-.817 0-.301.104-.57.314-.804.209-.234.477-.356.804-.364h3.342v-3.342c0-.318.113-.574.339-.767.226-.193.494-.301.804-.327.368 0 .649.113.842.339.192.226.297.498.314.816v3.267l3.317.025c.318 0 .582.109.792.327.209.218.318.49.327.817 0 .302-.113.565-.339.791-.226.226-.494.344-.804.352l-3.28.013-.012 3.28c0 .302-.111.572-.333.81-.222.239-.5.358-.835.358z" fill="#719E19"/></g>
    </symbol>
    <symbol id="tick-icon" viewBox="0 0 19 15">
        <path d="M8.524 13.227c-1.065 1.064-2.75 1.118-3.748.121-.143-.143-.258-.302-.358-.47l-3.583-3.582c-1.065-1.065-1.119-2.75-.122-3.747.998-.996 2.684-.943 3.748.122l2.184 2.184 7.018-7.02c1.065-1.064 2.75-1.118 3.747-.121.998.996.943 2.683-.12 3.746l-8.766 8.767z" />
    </symbol>
    <symbol id="tick-icon-negative" viewBox="0 0 48 48">
        <path d="M176.71 400.91a24 24 0 1 0 24 24 24 24 0 0 0-24-24zm8.23 21.43l-8.77 8.77a2.66 2.66 0 0 1-3.75.12 2.33 2.33 0 0 1-.36-.47l-3.58-3.58a2.57 2.57 0 1 1 3.63-3.63l2.18 2.18 7-7a2.57 2.57 0 1 1 3.65 3.6z" transform="translate(-152.71 -400.91)" fill-rule="evenodd"/>
    </symbol>
    <symbol id="star-icon" viewBox="0 0 12 11">
        <path d="M11.555 5.797l-5.039-.141 3.664 3.453-.516.516-3.453-3.664.141 5.039h-.719l.141-5.039-3.453 3.664-.516-.516 3.664-3.453-5.039.141v-.719l5.039.164-3.664-3.461.516-.508 3.453 3.664-.141-5.039h.719l-.141 5.039 3.453-3.664.516.508-3.664 3.461 5.039-.141v.695z" />
    </symbol>
    <symbol id="alert-icon" viewBox="0 0 45 45">
        <path d="M21.322 25.937v-13.235c0-.588.469-1.057 1.058-1.057.589 0 1.058.468 1.058 1.057v13.235c0 .588-.469 1.057-1.058 1.057-.589.065-1.058-.468-1.058-1.057m2.296 5.768c0 .648-.529 1.176-1.178 1.176-.649 0-1.178-.528-1.178-1.176 0-.648.529-1.176 1.178-1.176.649 0 1.178.528 1.178 1.176m-1.118 11.117c-11.19 0-20.319-9.118-20.319-20.294s9.129-20.354 20.319-20.354 20.319 9.118 20.319 20.354c0 11.236-9.129 20.294-20.319 20.294m0-42.821c-12.428 0-22.5 10.06-22.5 22.473 0 12.413 10.072 22.527 22.5 22.527s22.5-10.12 22.5-22.473c0-12.413-10.072-22.527-22.5-22.527" />
    </symbol>
    <symbol id="chat-icon" viewBox="0 0 64 53">
        <path d="M30.897 41.958l-11.034 11.042v-11.042h-19.862v-41.958h64v41.958h-33.103z" stroke="#231F1F" fill="none"/>
    </symbol>
    <symbol id="close-icon" viewBox="0 0 41 41">
        <path d="M-1360-510h1440v522h-1440z" fill="#F1F1EB"/><path fill="#fff" d="M-1360-30h1440v484h-1440z"/><path d="M21.106 20.046l18.766-18.766c.293-.293.293-.767 0-1.06-.293-.293-.768-.293-1.061 0l-18.765 18.765-18.766-18.765c-.293-.293-.767-.293-1.06 0-.293.293-.293.767 0 1.06l18.765 18.766-18.765 18.765c-.293.293-.293.767 0 1.06.146.147.338.22.53.22s.384-.073.53-.22l18.766-18.764 18.765 18.764c.147.147.338.22.53.22s.384-.073.531-.22c.293-.293.293-.767 0-1.06l-18.766-18.765" fill="#5B5B58"/>
    </symbol>
    <symbol id="close-icon-white" viewBox="0 0 41 41">
        <path d="M-1360-510h1440v522h-1440z" fill="#ffffff"/><path  d="M-1360-30h1440v484h-1440z"/><path d="M21.106 20.046l18.766-18.766c.293-.293.293-.767 0-1.06-.293-.293-.768-.293-1.061 0l-18.765 18.765-18.766-18.765c-.293-.293-.767-.293-1.06 0-.293.293-.293.767 0 1.06l18.765 18.766-18.765 18.765c-.293.293-.293.767 0 1.06.146.147.338.22.53.22s.384-.073.53-.22l18.766-18.764 18.765 18.764c.147.147.338.22.53.22s.384-.073.531-.22c.293-.293.293-.767 0-1.06l-18.766-18.765" />
    </symbol>
    <symbol id="arrow-right" viewBox="0 0 44 14">
        <path d="M0 0h1440v522h-1440z" fill="#F1F1EB"/><path fill="#DBDAD1" d="M1440 190h-40v90h40z"/><image x="1378" y="228" width="44" height="14" xlink:href="data:image/png;base64,iVBORw0KGgoAAAANSUhEUgAAACwAAAAOCAYAAABU4P48AAAABGdBTUEAA1teXP8meAAAAQ5JREFUSA1jZBhEwNPTk11cUvI64///H798+eK2evXq1+jOY0IXGGg+0LEsjExMBjy8vPtCQ0NF0d0zqBy8ffv2n79//3b69+/fU0ZGRh0uPr7jQUFBMsiOZkTmDBZ2TEyMCgsr6wEmJibpvwwMdz+/f++wbt26JyD3DUoHgxyGy9GMAQkJAiAFgxHw/PmjxMLGtoWJkVHy3///93/8/2/PIsTM/H4wOhbsJmZmuNOAjlbkZGC4PagyHdx1eBiDNg2D3IwtHQ9aB2NzLKikGJQOxuVYUKgPOgfjcyzIwSwgYrAAUFuClZV1H7Bqlv7///+Vb58/OwGTAUp7YtCVEv8ZGf/8//fvwhegY7E1fgDUk3mJmTp3UAAAAABJRU5ErkJggg=="/>
    </symbol>
    <symbol id="order-success" viewBox="0 0 45 45">
        <g id="a"><path d="M22.5,5A17.5,17.5,0,1,1,5,22.5,17.52,17.52,0,0,1,22.5,5m0-5A22.5,22.5,0,1,0,45,22.5,22.5,22.5,0,0,0,22.5,0h0Z" transform="translate(0 0)" /></g><path d="M32.11,19.08l-9.86,9.86a3,3,0,0,1-4.22.14,2.6,2.6,0,0,1-.4-0.53l-4-4a2.89,2.89,0,1,1,4.08-4.08l2.46,2.46L28,15a2.89,2.89,0,1,1,4.08,4.08h0Z" transform="translate(0 0)" />
    </symbol>
    <symbol id="order-error" viewBox="0 0 45 45">
        <g id="a"><path d="M22.5,4A18.5,18.5,0,1,1,4,22.5,18.52,18.52,0,0,1,22.5,4m0-4A22.5,22.5,0,1,0,45,22.5,22.5,22.5,0,0,0,22.5,0h0Z" transform="translate(0 0)" style="fill:#d0011b"/></g><path d="M26.24,22.16l2.89-2.89a2.89,2.89,0,1,0-4.08-4.08l-2.89,2.89-2.89-2.89a2.89,2.89,0,1,0-4.08,4.08l2.89,2.89-2.89,2.89a2.89,2.89,0,1,0,4.08,4.08l2.89-2.89,2.89,2.89a2.89,2.89,0,1,0,4.08-4.08Z" transform="translate(0 0)" style="fill:#d0011b"/>
    </symbol>
    <symbol id="quote" viewBox="0 0 36 36">
        <g stroke="none" stroke-width="1" fill="none" fill-rule="evenodd">
            <g transform="translate(-183.000000, -147.000000)" fill="#FFFFFF">
                <g>
                    <path d="M210.817935,147 C206.299355,147 202.636258,150.663097 202.636258,155.181677 C202.636258,159.64529 206.211097,163.271226 210.653806,163.359871 C208.587871,165.385161 205.758581,166.636258 202.636258,166.636258 L202.636258,171.545806 C211.673419,171.545806 219,164.218839 219,155.182065 C219,150.663097 215.336516,147 210.817935,147 L210.817935,147 Z M191.181677,147 C186.663097,147 183,150.663097 183,155.182065 C183,159.645677 186.574839,163.271613 191.017548,163.360258 C188.951613,165.385548 186.122323,166.636258 183,166.636258 L183,171.545806 C192.037548,171.545806 199.363355,164.218839 199.363355,155.182065 C199.363355,150.663097 195.700645,147 191.181677,147 L191.181677,147 Z" />
                </g>
            </g>
        </g>
    </symbol>
  <symbol id="calendar" viewBox="0 0 24 24">
    <g id="Page-1" transform="translate(1100.000000, 798.000000)">
      <path id="Fill-1" fill="#616B1E" d="M-1076.4-774h-23.2c-0.221,0-0.4-0.179-0.4-0.4V-796c0-0.221,0.179-0.4,0.4-0.4h4
		c0.221,0,0.4,0.179,0.4,0.4s-0.179,0.4-0.4,0.4h-3.6v20.8h22.4v-20.8h-3.601c-0.221,0-0.399-0.179-0.399-0.4s0.179-0.4,0.399-0.4h4
		c0.221,0,0.4,0.179,0.4,0.4v21.6C-1076-774.179-1076.18-774-1076.4-774L-1076.4-774z"/>
      <path id="Fill-3" fill="#616B1E" d="M-1095.2-794h2.4v-3.2h-2.4V-794z M-1092.4-793.2h-3.2c-0.221,0-0.4-0.179-0.4-0.4v-4
		c0-0.221,0.179-0.4,0.4-0.4h3.2c0.221,0,0.4,0.179,0.4,0.4v4C-1092-793.379-1092.179-793.2-1092.4-793.2L-1092.4-793.2z"/>
      <path id="Fill-5" fill="#616B1E" d="M-1083.2-794h2.4v-3.2h-2.4V-794z M-1080.4-793.2h-3.199c-0.221,0-0.4-0.179-0.4-0.4v-4
		c0-0.221,0.18-0.4,0.4-0.4h3.199c0.221,0,0.4,0.179,0.4,0.4v4C-1080-793.379-1080.18-793.2-1080.4-793.2L-1080.4-793.2z"/>
      <path id="Fill-6" fill="#616B1E" d="M-1083.6-795.6h-8.8c-0.221,0-0.4-0.179-0.4-0.4s0.179-0.4,0.4-0.4h8.8
		c0.221,0,0.399,0.179,0.399,0.4S-1083.379-795.6-1083.6-795.6"/>
      <path id="Fill-7" fill="#616B1E" d="M-1076.4-790h-23.2c-0.221,0-0.4-0.179-0.4-0.4s0.179-0.4,0.4-0.4h23.2
		c0.221,0,0.4,0.179,0.4,0.4S-1076.18-790-1076.4-790"/>
      <path id="Fill-8" fill="#616B1E" d="M-1094-776.018c-0.221,0-0.4-0.178-0.4-0.399v-12.105c0-0.221,0.179-0.4,0.4-0.4
		s0.4,0.179,0.4,0.4v12.105C-1093.6-776.195-1093.779-776.018-1094-776.018"/>
      <path id="Fill-9" fill="#616B1E" d="M-1088.4-776.018c-0.221,0-0.4-0.178-0.4-0.399v-12.105c0-0.221,0.179-0.4,0.4-0.4
		s0.4,0.179,0.4,0.4v12.105C-1088-776.195-1088.179-776.018-1088.4-776.018"/>
      <path id="Fill-10" fill="#616B1E" d="M-1082.8-776.018c-0.222,0-0.4-0.178-0.4-0.399v-12.105c0-0.221,0.179-0.4,0.4-0.4
		c0.221,0,0.399,0.179,0.399,0.4v12.105C-1082.4-776.195-1082.579-776.018-1082.8-776.018"/>
      <path id="Fill-11" fill="#616B1E" d="M-1078.418-786h-19.165c-0.221,0-0.4-0.179-0.4-0.4s0.179-0.4,0.4-0.4h19.165
		c0.221,0,0.4,0.179,0.4,0.4S-1078.197-786-1078.418-786"/>
      <path id="Fill-12" fill="#616B1E" d="M-1078.418-782h-19.165c-0.221,0-0.4-0.179-0.4-0.4c0-0.221,0.179-0.399,0.4-0.399h19.165
		c0.221,0,0.4,0.179,0.4,0.399C-1078.018-782.179-1078.197-782-1078.418-782"/>
      <path id="Fill-13" fill="#616B1E" d="M-1078.418-778h-19.165c-0.221,0-0.4-0.179-0.4-0.4c0-0.221,0.179-0.399,0.4-0.399h19.165
		c0.221,0,0.4,0.179,0.4,0.399C-1078.018-778.179-1078.197-778-1078.418-778"/>
    </g>
  </symbol>

    <symbol id="arrow_accordion" viewBox="0 0 23 12">
        <path d="M0 1.606l10.599 10.501.901.892.901-.892 10.599-10.501-1.802-1.606-10.599 10.501h1.802l-10.599-10.501z"/>
    </symbol>

    <symbol id="add_card" viewBox="0 0 12.92 12.92">
        <path id="Path" d="M6.49,13a1.26,1.26,0,0,1-.92-0.4,1.3,1.3,0,0,1-.38-1l0-3.74H1.37A1.51,1.51,0,0,1,.46,7.45,1.18,1.18,0,0,1,0,6.51,1.35,1.35,0,0,1,.4,5.58a1.23,1.23,0,0,1,.93-0.42H5.19V1.3A1.1,1.1,0,0,1,5.58.42,1.59,1.59,0,0,1,6.51,0a1.21,1.21,0,0,1,1,.39,1.54,1.54,0,0,1,.36.94V5.14l3.83,0a1.22,1.22,0,0,1,.91.38,1.36,1.36,0,0,1,.38.94,1.25,1.25,0,0,1-.39.91,1.32,1.32,0,0,1-.93.41H7.86v3.78a1.34,1.34,0,0,1-.38.94,1.26,1.26,0,0,1-1,.41h0Z" transform="translate(-0.04 -0.04)" style="fill:#719e19"/>
    </symbol>
</svg>
