<?xml version="1.0" encoding="UTF-8"?>
<svg width="16px" height="16px" viewBox="0 0 16 16" version="1.1" xmlns="http://www.w3.org/2000/svg" xmlns:xlink="http://www.w3.org/1999/xlink">
    <!-- Generator: Sketch 45.2 (43514) - http://www.bohemiancoding.com/sketch -->
    <title>Web/svg/icon_checkbox_checked_dark_16</title>
    <desc>Created with Sketch.</desc>
    <defs></defs>
    <g id="icon_checked" stroke="none" stroke-width="1" fill="none" fill-rule="evenodd" stroke-linecap="round" stroke-linejoin="round">
        <g id="icon_checkbox_checked_dark_16" stroke="#242424">
            <g id="Icon-/-Outline-/-Checkmark-checked-/-a.-Dark-grey-(#242424)">
                <path d="M14.9999809,8.01617237 C14.9910499,11.8823342 11.849024,15.0089119 7.98382763,14.9999809 C4.11766576,14.9910499 0.991088076,11.8499895 1.00001909,7.98382763 C1.0089501,4.11790714 4.1500105,0.991088074 8.01617237,1.00001908 C11.8813687,1.00895009 15.0089119,4.15025187 14.9999809,8.01617237 L14.9999809,8.01617237 Z" id="Line"></path>
                <polyline id="Line" points="11 5.75 7.19171089 10.25 4.75 7.87159065"></polyline>
            </g>
        </g>
    </g>
</svg>