<?xml version="1.0" encoding="UTF-8"?>
<svg width="10px" height="10px" viewBox="0 0 10 10" version="1.1" xmlns="http://www.w3.org/2000/svg" xmlns:xlink="http://www.w3.org/1999/xlink">
    <!-- Generator: Sketch 44.1 (41455) - http://www.bohemiancoding.com/sketch -->
    <title>SVG/icon_chevron_up</title>
    <desc>Created with Sketch.</desc>
    <defs></defs>
    <g id="2.-Export-Sprint-02" stroke="none" stroke-width="1" fill="none" fill-rule="evenodd">
        <g id="icon_chevron_up" fill="#353738">
            <g id="Arrow-/-Chevron-/-Filled-/-Small-/-c.-Down-/-x.-Dark-sand-brown-(#393C3A)" transform="translate(5.000000, 5.000000) scale(1, -1) translate(-5.000000, -5.000000) ">
                <polygon id="Path" points="10 3.68243243 8.83333333 2.5 5 6.38513514 1.16666667 2.5 -1.17639232e-12 3.68243243 5 8.74996688"></polygon>
            </g>
        </g>
    </g>
</svg>