<?xml version="1.0" encoding="UTF-8" standalone="no"?>
<svg width="24px" height="24px" viewBox="0 0 24 24" version="1.1" xmlns="http://www.w3.org/2000/svg" xmlns:xlink="http://www.w3.org/1999/xlink">
    <!-- Generator: Sketch 44.1 (41455) - http://www.bohemiancoding.com/sketch -->
    <title>SVG/icon_view</title>
    <desc>Created with Sketch.</desc>
    <defs></defs>
    <g id="Export" stroke="none" stroke-width="1" fill="none" fill-rule="evenodd" stroke-linecap="round" stroke-linejoin="round">
        <g id="icon_view" stroke="#242424">
            <g id="Icon-/-Outline-/-Eye-show-/-a.-Dark-grey-(#242424)">
                <path d="M22.5,12.375 C22.5,12.375 17.7992586,18 12,18 C6.20074138,18 1.5,12.375 1.5,12.375 C1.5,12.375 6.20074138,6 12,6 C17.7992586,6 22.5,12.375 22.5,12.375 L22.5,12.375 Z" id="Line"></path>
                <path d="M15.75,12 C15.75,14.071125 14.071125,15.75 12,15.75 C9.928875,15.75 8.25,14.071125 8.25,12 C8.25,9.928875 9.928875,8.25 12,8.25 C14.071125,8.25 15.75,9.928875 15.75,12 L15.75,12 Z" id="Line"></path>
            </g>
        </g>
    </g>
</svg>