<?xml version="1.0" encoding="UTF-8" standalone="no"?>
<svg width="24px" height="24px" viewBox="0 0 24 24" version="1.1" xmlns="http://www.w3.org/2000/svg" xmlns:xlink="http://www.w3.org/1999/xlink">
    <!-- Generator: Sketch 44.1 (41455) - http://www.bohemiancoding.com/sketch -->
    <title>SVG/icon_delete_address</title>
    <desc>Created with Sketch.</desc>
    <defs></defs>
    <g id="Export" stroke="none" stroke-width="1" fill="none" fill-rule="evenodd" stroke-linecap="round" stroke-linejoin="round">
        <g id="icon_delete_address" stroke="#242424">
            <g id="Icon-/-Outline-/-Cancel-order-/-a.-Dark-grey-(#242424)">
                <polygon id="Line" points="4.5 22.5 19.5 22.5 19.5 4.5 4.5 4.5"></polygon>
                <polygon id="Line" points="7.875 4.5 16.125 4.5 16.125 1.5 7.875 1.5"></polygon>
                <path d="M1.5,4.5 L22.5,4.5" id="Line"></path>
                <path d="M7.875,7.875 L7.875,19.125" id="Line"></path>
                <path d="M12,7.875 L12,19.125" id="Line"></path>
                <path d="M16.125,7.875 L16.125,19.125" id="Line"></path>
            </g>
        </g>
    </g>
</svg>