<?xml version="1.0" encoding="UTF-8" standalone="no"?>
<svg width="36px" height="36px" viewBox="0 0 36 36" version="1.1" xmlns="http://www.w3.org/2000/svg" xmlns:xlink="http://www.w3.org/1999/xlink">
    <!-- Generator: Sketch 44.1 (41455) - http://www.bohemiancoding.com/sketch -->
    <title>SVG/Icon_arrow_down</title>
    <desc>Created with Sketch.</desc>
    <defs></defs>
    <g id="Export" stroke="none" stroke-width="1" fill="none" fill-rule="evenodd" stroke-linecap="round" stroke-linejoin="round">
        <g id="Icon_arrow_down" stroke-width="2" stroke="#242424">
            <g id="Arrow-/-Chevron-/-2-pt-/-c.-Down-/-a.-Dark-grey-(#242424)">
                <polyline id="Path" transform="translate(18.000000, 18.000005) rotate(-90.000000) translate(-18.000000, -18.000005) " points="25.875 33.7500102 10.125 18.0298313 25.8154605 2.25"></polyline>
            </g>
        </g>
    </g>
</svg>