<?xml version="1.0" encoding="UTF-8"?>
<svg width="64px" height="64px" viewBox="0 0 64 64" version="1.1" xmlns="http://www.w3.org/2000/svg" xmlns:xlink="http://www.w3.org/1999/xlink" style="background: #000000;">
    <!-- Generator: Sketch 44.1 (41455) - http://www.bohemiancoding.com/sketch -->
    <title>SVG/icon_exclamation</title>
    <desc>Created with Sketch.</desc>
    <defs></defs>
    <g id="2.-Export-Sprint-02" stroke="none" stroke-width="1" fill="none" fill-rule="evenodd" stroke-linecap="round" stroke-linejoin="round">
        <g id="icon_exclamation" stroke="#FFFFFF">
            <g id="Icon-/-Outline-/-Exclamation-/-b.-White">
                <path d="M59.9958503,31.5126196 C60.2643926,46.9726045 47.4634532,59.7271876 31.9999998,59.9956917 C16.5390919,60.2641958 4.27269159,47.9486362 4.00414931,32.4873787 C3.73560704,17.0273937 16.5378192,4.27281071 31.9999998,4.00430657 C47.4634532,3.73580243 59.727308,16.0564522 59.9958503,31.5126196 L59.9958503,31.5126196 Z" id="Line"></path>
                <path d="M32.3560711,38.2215778 L32.3560711,20.2215778" id="Line"></path>
                <path d="M34,44.5 C34,45.3295 33.328,46 32.5,46 C31.6705,46 31,45.3295 31,44.5 C31,43.672 31.6705,43 32.5,43 C33.328,43 34,43.672 34,44.5 L34,44.5 Z" id="Line"></path>
            </g>
        </g>
    </g>
</svg>