<?xml version="1.0" encoding="UTF-8" standalone="no"?>
<svg width="64px" height="64px" viewBox="0 0 64 64" version="1.1" xmlns="http://www.w3.org/2000/svg" xmlns:xlink="http://www.w3.org/1999/xlink">
    <!-- Generator: Sketch 44.1 (41455) - http://www.bohemiancoding.com/sketch -->
    <title>SVG/icon_promocode</title>
    <desc>Created with Sketch.</desc>
    <defs></defs>
    <g id="Export" stroke="none" stroke-width="1" fill="none" fill-rule="evenodd">
        <g id="icon_promocode" fill="#FF8000">
            <g id="@-Self-Care-/-Icon-/-Promo-flag">
                <polyline id="Path-2" points="20 8 20 56 32 43.2353163 44 56 44 8"></polyline>
            </g>
        </g>
    </g>
</svg>