<?xml version="1.0" encoding="UTF-8" standalone="no"?>
<svg width="48px" height="48px" viewBox="0 0 48 48" version="1.1" xmlns="http://www.w3.org/2000/svg" xmlns:xlink="http://www.w3.org/1999/xlink">
    <!-- Generator: Sketch 44.1 (41455) - http://www.bohemiancoding.com/sketch -->
    <title>SVG/icon_check_promo</title>
    <desc>Created with Sketch.</desc>
    <defs>
        <circle id="path-1" cx="24" cy="24" r="24"></circle>
    </defs>
    <g id="Export" stroke="none" stroke-width="1" fill="none" fill-rule="evenodd">
        <g id="icon_check_promo">
            <g id="Fill-/-b.-Oval-/-b.-Solid-bg-+-border-/-a.-1-pt-/-a.-White-bg-/-a.-Inside-border-/-x.-Orange-(#FF8000)">
                <g id="Oval">
                    <use fill="#FFFFFF" fill-rule="evenodd" xlink:href="#path-1"></use>
                    <circle stroke="#FF8000" stroke-width="1" cx="24" cy="24" r="23.5"></circle>
                </g>
            </g>
            <g id="Icon-/-Chunky-/-Tick-/-x.-Sand-white-(#F1F1EB)" transform="translate(4.000000, 4.000000)" fill="#F1F1EB">
                <path d="M28.540494,16.9599893 L19.7740938,25.7270735 C18.7093239,26.7911595 17.0236092,26.8451844 16.0265414,25.8481167 C15.8836147,25.7051899 15.7680424,25.5458506 15.6688827,25.377621 L12.0854567,21.7955628 C11.0206869,20.7307929 10.9666619,19.0457621 11.9637297,18.0486943 C12.9614813,17.0523104 14.6478798,17.1056515 15.711282,18.1704214 L17.8955306,20.35467 L24.9139849,13.3348479 C25.9794387,12.2707619 27.6644695,12.216737 28.6608534,13.2138047 C29.658605,14.2095048 29.6038962,15.8965872 28.540494,16.9599893 L28.540494,16.9599893 Z" id="Path"></path>
            </g>
        </g>
    </g>
</svg>