<?xml version="1.0" encoding="UTF-8" standalone="no"?>
<svg width="192px" height="192px" viewBox="0 0 192 192" version="1.1" xmlns="http://www.w3.org/2000/svg" xmlns:xlink="http://www.w3.org/1999/xlink">
    <!-- Generator: Sketch 44.1 (41455) - http://www.bohemiancoding.com/sketch -->
    <title>SVG/icon_default_profile_photo</title>
    <desc>Created with Sketch.</desc>
    <defs>
        <circle id="path-1" cx="96" cy="96" r="95.0782123"></circle>
        <circle id="path-2" cx="96" cy="96" r="95.0782123"></circle>
    </defs>
    <g id="Export" stroke="none" stroke-width="1" fill="none" fill-rule="evenodd">
        <g id="icon_default_profile_photo">
            <g>
                <g id="Oval-5">
                    <use fill="#F7F8F4" fill-rule="evenodd" xlink:href="#path-1"></use>
                    <circle stroke="#FFFFFF" stroke-width="1" cx="96" cy="96" r="95.5782123"></circle>
                </g>
                <mask id="mask-3" fill="white">
                    <use xlink:href="#path-2"></use>
                </mask>
                <use id="Mask" fill="#E2E1DA" xlink:href="#path-2"></use>
                <g id="icon-user" mask="url(#mask-3)">
                    <g transform="translate(16.256983, 13.189944)">
                        <path d="M93.5382157,147.970257 L117.154153,116.241036 L110.35799,108.530617 C110.35799,108.530617 104.750255,105.566397 103.570402,102.304031 C102.390548,99.0416651 103.570402,86.8849153 104.455292,79.1744958 C104.897335,75.3302371 109.565233,68.0078314 111.840994,60.8632975 C114.12972,53.6780586 114.025116,46.6814737 114.025116,46.6814737 L110.35799,30.8387481 L105.045219,25.5014283 C105.045219,25.5014283 84.6858834,20.1641084 84.1714123,20.1641084 L78.9306669,20.1641084 C78.4179108,20.1641084 58.0585754,25.5014283 58.0585754,25.5014283 L52.7458041,30.8387481 L47.6447995,45.9935948 C47.6447995,45.9935948 47.7690667,52.7064214 50.4581227,60.1973937 C53.0554712,67.432894 58.2128602,75.3861655 58.6467873,79.1744958 C59.5333925,86.8849153 60.7132461,99.0416651 59.5333925,102.304031 C58.3518239,105.566397 50.4581227,107.048507 50.4581227,107.048507 L45.9496412,116.241036 L69.5655784,147.970257 L93.5382157,147.970257 Z" id="Fill-1" fill="#FFFFFF"></path>
                        <path d="M114.26454,46.5734153 L115.372368,24.0194905 C115.372368,24.0194905 108.737406,0.000689353551 84.1714123,0.000689353551 C59.6054184,0.000689353551 46.6218834,13.6412728 46.6218834,26.3908667 C46.6218834,39.142184 47.6714044,45.5359382 47.6714044,45.5359382 C47.6714044,45.5359382 52.2279032,47.4454475 53.1127934,49.5221251 C53.9976837,51.5970793 55.1792523,30.8389205 56.3591059,29.3568103 C57.5389596,27.8729768 56.0641425,21.9445363 80.9988407,26.3908667 C105.931824,30.8389205 103.570402,29.6549558 104.455292,31.7299099 C105.341897,33.8048641 108.293246,50.406221 109.768063,49.6668894 C109.768063,49.6668894 112.074609,45.5031939 114.26454,46.5734153" id="Fill-3" fill-opacity="0.9" fill="#FFFFFF"></path>
                        <path d="M59.0960921,83.2811472 C59.0960921,83.2811472 72.3694458,106.426193 104.981767,104.485662 C104.981767,104.485662 103.242855,103.303421 103.162255,99.9031847 C103.081654,96.4995016 103.440069,89.466372 103.440069,89.466372 C103.440069,89.466372 103.752181,84.8683838 104.012847,83.2259989 C104.249503,81.7369953 86.5208302,110.059086 59.0960921,83.2811472" id="Fill-5" fill="#EBEBE4"></path>
                        <path d="M157.863906,128.991147 C157.863906,128.991147 120.388118,110.013244 110.357647,108.531134 C110.357647,108.531134 102.685168,127.509037 80.5543376,127.509037 C58.4252218,127.509037 50.4577797,110.309666 50.4577797,107.049024 C50.4577797,107.049024 11.2122111,118.020085 0.000171490354,128.991147 C0.000171490354,128.991147 3.24648398,180.292838 78.9320389,180.292838 C154.617594,180.292838 157.863906,128.991147 157.863906,128.991147" id="Fill-11" fill="#C7C4B6"></path>
                    </g>
                </g>
            </g>
        </g>
    </g>
</svg>