<?xml version="1.0" encoding="UTF-8"?>
<svg width="64px" height="64px" viewBox="0 0 64 64" version="1.1" xmlns="http://www.w3.org/2000/svg" xmlns:xlink="http://www.w3.org/1999/xlink">
    <!-- Generator: Sketch 44.1 (41455) - http://www.bohemiancoding.com/sketch -->
    <title>SVG/icon_pager_arrow_right_b_active</title>
    <desc>Created with Sketch.</desc>
    <defs></defs>
    <g id="2.-Export-Sprint-02" stroke="none" stroke-width="1" fill="none" fill-rule="evenodd" stroke-linecap="round" stroke-linejoin="round">
        <g id="icon_pager_arrow_right_b_active" stroke-width="2" stroke="#242424">
            <g id="Arrow-/-Thin-/-2-pt-/-b.-Right-/-a.-Dark-grey-(#242424)">
                <polyline id="Line" transform="translate(49.499999, 32.000001) rotate(-180.000000) translate(-49.499999, -32.000001) " points="52.9999977 39.0000013 46 32.0132574 52.9735357 25.0000013"></polyline>
                <path d="M53,32 L10,32" id="Line" transform="translate(31.500000, 32.000000) scale(-1, 1) translate(-31.500000, -32.000000) "></path>
            </g>
        </g>
    </g>
</svg>