<?xml version="1.0" encoding="UTF-8"?>
<svg width="64px" height="64px" viewBox="0 0 64 64" version="1.1" xmlns="http://www.w3.org/2000/svg" xmlns:xlink="http://www.w3.org/1999/xlink">
    <!-- Generator: Sketch 46.2 (44496) - http://www.bohemiancoding.com/sketch -->
    <title>Web/svg/icon_eye_show_dark_64</title>
    <desc>Created with Sketch.</desc>
    <defs></defs>
    <g id="icon_eye_show" stroke="none" stroke-width="1" fill="none" fill-rule="evenodd" stroke-linecap="round" stroke-linejoin="round">
        <g id="icon_eye_show_dark_64" stroke="#242424">
            <g id="Icon-/-Outline-/-Eye-show-/-a.-Dark-grey-(#242424)">
                <path d="M60,33 C60,33 47.4646897,48 32,48 C16.5353103,48 4,33 4,33 C4,33 16.5353103,16 32,16 C47.4646897,16 60,33 60,33 L60,33 Z" id="Line"></path>
                <path d="M42,32 C42,37.523 37.523,42 32,42 C26.477,42 22,37.523 22,32 C22,26.477 26.477,22 32,22 C37.523,22 42,26.477 42,32 L42,32 Z" id="Line"></path>
            </g>
        </g>
    </g>
</svg>