<?xml version="1.0" encoding="UTF-8" standalone="no"?>
<svg width="24px" height="24px" viewBox="0 0 24 24" version="1.1" xmlns="http://www.w3.org/2000/svg" xmlns:xlink="http://www.w3.org/1999/xlink">
    <!-- Generator: Sketch 44.1 (41455) - http://www.bohemiancoding.com/sketch -->
    <title>SVG/icon_info</title>
    <desc>Created with Sketch.</desc>
    <defs></defs>
    <g id="Export" stroke="none" stroke-width="1" fill="none" fill-rule="evenodd" stroke-linecap="round" stroke-linejoin="round">
        <g id="icon_info" stroke="#242424">
            <g id="Icon-/-Outline-/-Info-/-a.-Dark-grey-(#242424)">
                <polyline id="Line" points="12 16.4056125 12 11.1556125 10.125 11.1556125"></polyline>
                <path d="M11.7062625,8.1568875 C11.7062625,8.46733428 11.4545789,8.71901792 11.1441321,8.71901792 C10.8333157,8.71901792 10.5812625,8.46733428 10.5812625,8.1568875 C10.5812625,7.84607114 10.8333157,7.5943875 11.1441321,7.5943875 C11.4545789,7.5943875 11.7062625,7.84607114 11.7062625,8.1568875 L11.7062625,8.1568875 Z" id="Line"></path>
                <path d="M22.4999714,12.0242586 C22.4865749,17.8235014 17.773536,22.5133679 11.9757414,22.4999714 C6.17649864,22.4865749 1.48663211,17.7749843 1.50002863,11.9757414 C1.51342514,6.1768607 6.22501575,1.48663211 12.0242586,1.50002863 C17.8220531,1.51342514 22.5133679,6.22537781 22.4999714,12.0242586 L22.4999714,12.0242586 Z" id="Line"></path>
            </g>
        </g>
    </g>
</svg>