<?xml version="1.0" encoding="UTF-8"?>
<svg width="16px" height="16px" viewBox="0 0 16 16" version="1.1" xmlns="http://www.w3.org/2000/svg" xmlns:xlink="http://www.w3.org/1999/xlink">
    <!-- Generator: Sketch 44.1 (41455) - http://www.bohemiancoding.com/sketch -->
    <title>SVG/icon_check_sand</title>
    <desc>Created with Sketch.</desc>
    <defs></defs>
    <g id="2.-Export-Sprint-02" stroke="none" stroke-width="1" fill="none" fill-rule="evenodd">
        <g id="icon_check_sand" fill="#F1F1EB">
            <g id="Icon-/-Chunky-/-Tick-/-x.-Sand-white-(#F1F1EB)">
                <path d="M11.4161976,6.78399573 L7.90963751,10.2908294 C7.48372956,10.7164638 6.80944368,10.7380738 6.41061658,10.3392467 C6.35344589,10.282076 6.30721696,10.2183402 6.26755308,10.1510484 L4.8341827,8.71822512 C4.40827474,8.29231716 4.38666477,7.61830483 4.78549187,7.21947773 C5.18459252,6.82092417 5.85915194,6.8422606 6.28451281,7.26816855 L7.15821224,8.14186798 L9.96559396,5.33393917 C10.3917755,4.90830476 11.0657878,4.88669478 11.4643414,5.28552189 C11.863442,5.6838019 11.8415585,6.35863487 11.4161976,6.78399573 L11.4161976,6.78399573 Z" id="Path"></path>
            </g>
        </g>
    </g>
</svg>