<?xml version="1.0" encoding="UTF-8" standalone="no"?>
<svg width="32px" height="32px" viewBox="0 0 32 32" version="1.1" xmlns="http://www.w3.org/2000/svg" xmlns:xlink="http://www.w3.org/1999/xlink">
    <!-- Generator: Sketch 44.1 (41455) - http://www.bohemiancoding.com/sketch -->
    <title>SVG/icon_postpaid_dark_grey</title>
    <desc>Created with Sketch.</desc>
    <defs></defs>
    <g id="Export" stroke="none" stroke-width="1" fill="none" fill-rule="evenodd" stroke-linecap="round" stroke-linejoin="round">
        <g id="icon_postpaid_dark_grey" stroke="#242424">
            <g id="@-Self-Care-/-Icon-/-Outline-/-Postpaid-/-Dark-Grey">
                <g id="Group-2" transform="translate(8.500000, 2.000000)">
                    <path d="M0,23 L15,23" id="Line"></path>
                    <path d="M8.25,25.625 C8.25,25.97 7.9703125,26.25 7.625,26.25 C7.28,26.25 7,25.97 7,25.625 C7,25.2796875 7.28,25 7.625,25 C7.9703125,25 8.25,25.2796875 8.25,25.625 L8.25,25.625 Z" id="Line"></path>
                    <path d="M15,20.8590306 C15,22.7680894 15,24.3438148 15,25.5862069 C15,26.9137931 14.0073529,28 12.7941176,28 L2.20588235,28 C0.992647059,28 0,26.9137931 0,25.5862069 L0,2.4137931 C0,1.0862069 0.992647059,0 2.20588235,0 L12.7941176,0 C14.0073529,0 15,1.0862069 15,2.4137931 C15,2.2956458 15,4.08351197 15,7.77739163" id="Line"></path>
                    <path d="M0,4.5 L15,4.5" id="Line"></path>
                    <path d="M5,2 L10,2" id="Line"></path>
                </g>
                <g id="Group-3" transform="translate(14.000000, 11.000000)">
                    <path d="M0,1.77586207 L15.8730088,1.77586207" id="Line"></path>
                    <path d="M2.13303741,0 L0,0 L0,10.8571429 L15.8730088,10.8571429 L15.8730088,0 L13.2903656,0 M13.9281271,-3.55271368e-15 L1.75883801,-3.55271368e-15 L13.9281271,-3.55271368e-15 Z" id="Line"></path>
                    <path d="M9.125,4.625 C9.125,5.177 8.6775,5.625 8.125,5.625 C7.573,5.625 7.125,5.177 7.125,4.625 C7.125,4.0725 7.573,3.625 8.125,3.625 C8.6775,3.625 9.125,4.0725 9.125,4.625 L9.125,4.625 Z" id="Line"></path>
                    <path d="M5.125,4.625 C5.125,5.177 4.6775,5.625 4.125,5.625 C3.573,5.625 3.125,5.177 3.125,4.625 C3.125,4.0725 3.573,3.625 4.125,3.625 C4.6775,3.625 5.125,4.0725 5.125,4.625 L5.125,4.625 Z" id="Line"></path>
                    <path d="M13.125,4.625 C13.125,5.177 12.6775,5.625 12.125,5.625 C11.573,5.625 11.125,5.177 11.125,4.625 C11.125,4.0725 11.573,3.625 12.125,3.625 C12.6775,3.625 13.125,4.0725 13.125,4.625 L13.125,4.625 Z" id="Line"></path>
                    <path d="M9.125,8.125 C9.125,8.677 8.6775,9.125 8.125,9.125 C7.573,9.125 7.125,8.677 7.125,8.125 C7.125,7.5725 7.573,7.125 8.125,7.125 C8.6775,7.125 9.125,7.5725 9.125,8.125 L9.125,8.125 Z" id="Line"></path>
                    <path d="M5.125,8.125 C5.125,8.677 4.6775,9.125 4.125,9.125 C3.573,9.125 3.125,8.677 3.125,8.125 C3.125,7.5725 3.573,7.125 4.125,7.125 C4.6775,7.125 5.125,7.5725 5.125,8.125 L5.125,8.125 Z" id="Line"></path>
                    <path d="M13.125,8.125 C13.125,8.677 12.6775,9.125 12.125,9.125 C11.573,9.125 11.125,8.677 11.125,8.125 C11.125,7.5725 11.573,7.125 12.125,7.125 C12.6775,7.125 13.125,7.5725 13.125,8.125 L13.125,8.125 Z" id="Line"></path>
                </g>
            </g>
        </g>
    </g>
</svg>