<?xml version="1.0" encoding="UTF-8" standalone="no"?>
<svg width="32px" height="32px" viewBox="0 0 32 32" version="1.1" xmlns="http://www.w3.org/2000/svg" xmlns:xlink="http://www.w3.org/1999/xlink">
    <!-- Generator: Sketch 44.1 (41455) - http://www.bohemiancoding.com/sketch -->
    <title>SVG/icon_elife_light_grey</title>
    <desc>Created with Sketch.</desc>
    <defs></defs>
    <g id="Export" stroke="none" stroke-width="1" fill="none" fill-rule="evenodd" stroke-linecap="round" stroke-linejoin="round">
        <g id="icon_elife_light_grey" stroke="#9B9B9B">
            <g id="@-Self-Care-/-Icon-/-Outline-/-eLife-/-a.-Light-grey-(#9B9B9B)">
                <path d="M30,22 C30,22.55 29.5655172,23 29.0344828,23 L2.96551724,23 C2.43448276,23 2,22.55 2,22 L2,6 C2,5.45 2.43448276,5 2.96551724,5 L29.0344828,5 C29.5655172,5 30,5.45 30,6 L30,22 L30,22 Z" id="Line"></path>
                <path d="M14.5,23 L14.5,26" id="Line"></path>
                <path d="M17.5,23 L17.5,26" id="Line"></path>
                <path d="M25.5,27 C23.0058725,25.7823617 19.6690533,26.0184295 16.0002496,26.0184295 C12.3309467,26.0184295 8.99412754,25.7823617 6.5,27" id="Line"></path>
                <path d="M9.91366476,9.72932426 C9.499916,10.6121184 9.51791451,11.3806184 9.8577176,12.7176037 C10.3358706,14.6006846 11.1614165,16.5033831 11.5461074,17.7744787 C11.988914,19.0741478 11.9917331,19.7407213 12.1634778,19.8270816 C12.1803921,19.8360375 12.2001254,19.8390228 12.2244125,19.8390228 C12.4503696,19.8390228 13.0195995,19.4918757 14.2235476,19.1338537 C15.4992729,18.7069566 17.5552226,18.2664125 19.3941059,17.559964 C20.6563866,17.0737875 21.5274708,16.4624419 21.8065561,15.7060963 C21.8234703,15.6854125 21.8403846,15.6647287 21.8562146,15.6438316 C21.8544798,15.6500154 21.8531787,15.6561993 21.8512271,15.6621699 C22.2005715,15.1981699 22.3037919,14.6695596 22.0997365,14.0720743 C21.7161299,12.8028978 19.8774634,11.204486 17.3884654,9.94064044 C15.4604569,8.96189044 13.5927326,8.41174338 12.2558557,8.41174338 C11.8666109,8.41174338 11.5218203,8.45865515 11.2347116,8.55461103 C10.6273163,8.73564779 10.306596,9.03311103 9.9949833,9.57941985 L9.91366476,9.72932426 L9.91366476,9.72932426 Z" id="Line"></path>
                <path d="M13.6655289,17.848514 C13.5143848,17.848514 13.38601,17.8237787 13.2758504,17.7674846 C12.9102423,17.5834625 12.7092228,17.0309699 12.4149581,16.1558522 C12.1477996,15.2939551 11.7878295,14.107514 11.718004,12.9652125 C11.648829,11.8212051 12.0035947,10.9985434 12.8996167,10.7285875 C13.1292602,10.6526757 13.3964187,10.6162125 13.6922014,10.6162125 C14.5155788,10.6162125 15.5562393,10.9013081 16.6029716,11.4333301 C18.025504,12.1547051 19.0635623,13.132389 19.3328893,13.9940728 C19.6265035,14.8689772 19.1492178,15.630014 18.1606012,16.2360287 C17.1726351,16.8420434 15.9806137,17.2405801 15.1110474,17.525036 C14.4847861,17.7146022 14.0157408,17.848514 13.6655289,17.848514" id="Line"></path>
                <path d="M13.9078148,17.5832066 C13.7028921,17.5832066 13.5278946,17.5510081 13.3943153,17.4825596 C12.7463691,17.1528978 12.2330865,15.562589 12.2421942,13.9281404 C12.246748,12.8606846 12.9337271,12.2725816 13.9641957,12.2725816 C14.5143427,12.2725816 15.1627226,12.4412507 15.8568577,12.7941551 C17.8497041,13.8057434 18.3627699,15.3956257 17.0089788,16.3485743 C15.9366583,17.1055596 14.6980142,17.5832066 13.9078148,17.5832066 L13.9078148,17.5832066 Z" id="Line"></path>
            </g>
        </g>
    </g>
</svg>