<?xml version="1.0" encoding="UTF-8"?>
<svg width="64px" height="64px" viewBox="0 0 64 64" version="1.1" xmlns="http://www.w3.org/2000/svg" xmlns:xlink="http://www.w3.org/1999/xlink">
    <!-- Generator: Sketch 46.2 (44496) - http://www.bohemiancoding.com/sketch -->
    <title>Web/svg/icon_check_circle_white_64</title>
    <desc>Created with Sketch.</desc>
    <defs></defs>
    <g id="icon_check_circle_promo" stroke="none" stroke-width="1" fill="none" fill-rule="evenodd" stroke-linecap="round" stroke-linejoin="round">
        <g id="icon_check_circle_white_64" stroke="#FFFFFF">
            <g id="Icon-/-Outline-/-Checkmark-checked-/-b.-White">
                <path d="M59.9999237,32.0646895 C59.9641996,47.529337 47.396096,60.0356477 31.9353105,59.9999237 C16.470663,59.9641996 3.9643523,47.399958 4.00007634,31.9353105 C4.03580038,16.4716285 16.600042,3.9643523 32.0646895,4.00007634 C47.5254749,4.03580038 60.0356477,16.6010075 59.9999237,32.0646895 L59.9999237,32.0646895 Z" id="Line"></path>
                <polyline id="Line" points="44 23 28.7668435 41 19 31.4863626"></polyline>
            </g>
        </g>
    </g>
</svg>