<?xml version="1.0" encoding="UTF-8" standalone="no"?>
<svg width="64px" height="64px" viewBox="0 0 64 64" version="1.1" xmlns="http://www.w3.org/2000/svg" xmlns:xlink="http://www.w3.org/1999/xlink">
    <!-- Generator: Sketch 40.1 (33804) - http://www.bohemiancoding.com/sketch -->
    <title>icon / outline / document bag / black</title>
    <desc>Created with Sketch.</desc>
    <defs></defs>
    <g id="Symbols" stroke="none" stroke-width="1" fill="none" fill-rule="evenodd" stroke-linecap="round" stroke-linejoin="round">
        <g id="icon-/-outline-/-document-bag-/-black" stroke="#242424">
            <g id="icon/outline/document-bag/black/DB-01" transform="translate(5.000000, 8.000000)">
                <polygon id="Stroke-1" points="0 47.3856588 54 47.3856588 54 7.58173725 0 7.58173725"></polygon>
                <path d="M16.875,5.68627451 C16.875,2.51901961 19.366875,0 22.5,0 L31.5,0 C34.633125,0 37.125,2.51901961 37.125,5.68627451" id="Stroke-3"></path>
                <polyline id="Stroke-4" points="0.57105 18.3632549 26.44605 32.0103137 53.44605 17.984549"></polyline>
            </g>
        </g>
    </g>
</svg>